tb/gtk.vcd
$date
	Tue May 10 06:44:46 2022
$end
$version
	Icarus Verilog
$end
$timescale
	1ps
$end
$scope module tb $end
$var wire 1 ! x3 $end
$var wire 1 " x27 $end
$var wire 1 # x26 $end
$var reg 1 $ clk $end
$var reg 1 % rst $end
$var integer 32 & r [31:0] $end
$scope module rv_soc_ins $end
$var wire 1 $ clk $end
$var wire 1 % rst $end
$var wire 32 ' rv_core_inst_addr_o [31:0] $end
$var wire 32 ( rom_inst_o [31:0] $end
$scope module rom_ins $end
$var wire 32 ) inst_addr_i [31:0] $end
$var reg 32 * inst_o [31:0] $end
$upscope $end
$scope module rv_core_ins $end
$var wire 1 $ clk $end
$var wire 32 + inst_i [31:0] $end
$var wire 1 % rst $end
$var wire 32 , regs_reg2_rdata_o [31:0] $end
$var wire 32 - regs_reg1_rdata_o [31:0] $end
$var wire 32 . pc_reg_pc_o [31:0] $end
$var wire 32 / inst_addr_o [31:0] $end
$var wire 32 0 ifetch_inst_o [31:0] $end
$var wire 32 1 ifetch_inst_addr_o [31:0] $end
$var wire 32 2 if_id_inst_o [31:0] $end
$var wire 32 3 if_id_inst_addr_o [31:0] $end
$var wire 5 4 id_rs2_addr_o [4:0] $end
$var wire 5 5 id_rs1_addr_o [4:0] $end
$var wire 1 6 id_reg_wen $end
$var wire 5 7 id_rd_addr_o [4:0] $end
$var wire 32 8 id_op2_o [31:0] $end
$var wire 32 9 id_op1_o [31:0] $end
$var wire 32 : id_inst_o [31:0] $end
$var wire 32 ; id_inst_addr_o [31:0] $end
$var wire 1 < id_ex_reg_wen_o $end
$var wire 5 = id_ex_rd_addr_o [4:0] $end
$var wire 32 > id_ex_op2_o [31:0] $end
$var wire 32 ? id_ex_op1_o [31:0] $end
$var wire 32 @ id_ex_inst_o [31:0] $end
$var wire 32 A id_ex_inst_addr_o [31:0] $end
$var wire 1 B ex_reg_wen_o $end
$var wire 32 C ex_rd_data_o [31:0] $end
$var wire 5 D ex_rd_addr_o [4:0] $end
$var wire 1 E ex_jump_en_o $end
$var wire 32 F ex_jump_addr_o [31:0] $end
$var wire 1 G ex_hold_flag_o $end
$var wire 1 H ctrl_jump_en_o $end
$var wire 32 I ctrl_jump_addr_o [31:0] $end
$var wire 1 J ctrl_hold_flag_o $end
$scope module ctrl_ins $end
$var wire 1 % rst $end
$var wire 1 E jump_en_i $end
$var wire 32 K jump_addr_i [31:0] $end
$var wire 1 G hold_flag_i $end
$var reg 1 J hold_flag_o $end
$var reg 32 L jump_addr_o [31:0] $end
$var reg 1 H jump_en_o $end
$upscope $end
$scope module ex_ins $end
$var wire 5 M rs2 [4:0] $end
$var wire 5 N rs1 [4:0] $end
$var wire 1 < reg_wen_i $end
$var wire 5 O rd_addr_i [4:0] $end
$var wire 5 P rd [4:0] $end
$var wire 7 Q opcode [6:0] $end
$var wire 32 R op2_i [31:0] $end
$var wire 1 S op1_i_equal_op2_i $end
$var wire 32 T op1_i [31:0] $end
$var wire 32 U jump_imm [31:0] $end
$var wire 32 V inst_i [31:0] $end
$var wire 32 W inst_addr_i [31:0] $end
$var wire 12 X imm [11:0] $end
$var wire 7 Y funct7 [6:0] $end
$var wire 3 Z funct3 [2:0] $end
$var reg 1 G hold_flag_o $end
$var reg 32 [ jump_addr_o [31:0] $end
$var reg 1 E jump_en_o $end
$var reg 5 \ rd_addr_o [4:0] $end
$var reg 32 ] rd_data_o [31:0] $end
$var reg 1 B reg_wen_o $end
$upscope $end
$scope module id_ex_ins $end
$var wire 1 $ clk $end
$var wire 1 J hold_flag_i $end
$var wire 1 % rst $end
$var wire 1 < reg_wen_o $end
$var wire 1 6 reg_wen_i $end
$var wire 5 ^ rd_addr_o [4:0] $end
$var wire 5 _ rd_addr_i [4:0] $end
$var wire 32 ` op2_o [31:0] $end
$var wire 32 a op2_i [31:0] $end
$var wire 32 b op1_o [31:0] $end
$var wire 32 c op1_i [31:0] $end
$var wire 32 d inst_o [31:0] $end
$var wire 32 e inst_i [31:0] $end
$var wire 32 f inst_addr_o [31:0] $end
$var wire 32 g inst_addr_i [31:0] $end
$scope module dff1 $end
$var wire 1 $ clk $end
$var wire 1 J hold_flag_i $end
$var wire 1 % rst $end
$var wire 32 h set_data [31:0] $end
$var wire 32 i data_i [31:0] $end
$var reg 32 j data_o [31:0] $end
$upscope $end
$scope module dff2 $end
$var wire 1 $ clk $end
$var wire 1 J hold_flag_i $end
$var wire 1 % rst $end
$var wire 32 k set_data [31:0] $end
$var wire 32 l data_i [31:0] $end
$var reg 32 m data_o [31:0] $end
$upscope $end
$scope module dff3 $end
$var wire 1 $ clk $end
$var wire 1 J hold_flag_i $end
$var wire 1 % rst $end
$var wire 32 n set_data [31:0] $end
$var wire 32 o data_i [31:0] $end
$var reg 32 p data_o [31:0] $end
$upscope $end
$scope module dff4 $end
$var wire 1 $ clk $end
$var wire 1 J hold_flag_i $end
$var wire 1 % rst $end
$var wire 32 q set_data [31:0] $end
$var wire 32 r data_i [31:0] $end
$var reg 32 s data_o [31:0] $end
$upscope $end
$scope module dff5 $end
$var wire 1 $ clk $end
$var wire 1 J hold_flag_i $end
$var wire 1 % rst $end
$var wire 1 t set_data $end
$var wire 1 6 data_i $end
$var reg 1 < data_o $end
$upscope $end
$scope module dff6 $end
$var wire 1 $ clk $end
$var wire 1 J hold_flag_i $end
$var wire 1 % rst $end
$var wire 5 u set_data [4:0] $end
$var wire 5 v data_i [4:0] $end
$var reg 5 w data_o [4:0] $end
$upscope $end
$upscope $end
$scope module id_ins $end
$var wire 32 x rs2_data_i [31:0] $end
$var wire 5 y rs2 [4:0] $end
$var wire 32 z rs1_data_i [31:0] $end
$var wire 5 { rs1 [4:0] $end
$var wire 5 | rd [4:0] $end
$var wire 7 } opcode [6:0] $end
$var wire 32 ~ inst_i [31:0] $end
$var wire 32 !" inst_addr_i [31:0] $end
$var wire 12 "" imm [11:0] $end
$var wire 7 #" funct7 [6:0] $end
$var wire 3 $" funct3 [2:0] $end
$var reg 32 %" inst_addr_o [31:0] $end
$var reg 32 &" inst_o [31:0] $end
$var reg 32 '" op1_o [31:0] $end
$var reg 32 (" op2_o [31:0] $end
$var reg 5 )" rd_addr_o [4:0] $end
$var reg 1 6 reg_wen $end
$var reg 5 *" rs1_addr_o [4:0] $end
$var reg 5 +" rs2_addr_o [4:0] $end
$upscope $end
$scope module if_id_ins $end
$var wire 1 $ clk $end
$var wire 1 J hold_flag_i $end
$var wire 1 % rst $end
$var wire 32 ," inst_o [31:0] $end
$var wire 32 -" inst_i [31:0] $end
$var wire 32 ." inst_addr_o [31:0] $end
$var wire 32 /" inst_addr_i [31:0] $end
$scope module dff1 $end
$var wire 1 $ clk $end
$var wire 1 J hold_flag_i $end
$var wire 1 % rst $end
$var wire 32 0" set_data [31:0] $end
$var wire 32 1" data_i [31:0] $end
$var reg 32 2" data_o [31:0] $end
$upscope $end
$scope module dff2 $end
$var wire 1 $ clk $end
$var wire 1 J hold_flag_i $end
$var wire 1 % rst $end
$var wire 32 3" set_data [31:0] $end
$var wire 32 4" data_i [31:0] $end
$var reg 32 5" data_o [31:0] $end
$upscope $end
$upscope $end
$scope module ifetch_ins $end
$var wire 32 6" if2rom_addr_o [31:0] $end
$var wire 32 7" inst_addr_o [31:0] $end
$var wire 32 8" inst_o [31:0] $end
$var wire 32 9" rom_inst_i [31:0] $end
$var wire 32 :" pc_addr_i [31:0] $end
$upscope $end
$scope module pc_reg_ins $end
$var wire 1 $ clk $end
$var wire 32 ;" jump_addr_i [31:0] $end
$var wire 1 H jump_en_i $end
$var wire 1 % rst $end
$var reg 32 <" pc_o [31:0] $end
$upscope $end
$scope module regs_ins $end
$var wire 1 $ clk $end
$var wire 5 =" rd_addr_i [4:0] $end
$var wire 32 >" rd_data_i [31:0] $end
$var wire 5 ?" reg1_raddr_i [4:0] $end
$var wire 5 @" reg2_raddr_i [4:0] $end
$var wire 1 B reg_wen $end
$var wire 1 % rst $end
$var reg 32 A" reg1_rdata_o [31:0] $end
$var reg 32 B" reg2_rdata_o [31:0] $end
$var integer 32 C" i [31:0] $end
$upscope $end
$upscope $end
$upscope $end
$upscope $end
$enddefinitions $end
#0
$dumpvars
b100000 C"
b0 B"
b0 A"
b0 @"
b0 ?"
b0 >"
b0 ="
b0 <"
b0 ;"
b0 :"
b110100010011 9"
b110100010011 8"
b0 7"
b0 6"
b0 5"
b0 4"
b0 3"
b1 2"
b110100010011 1"
b1 0"
b0 /"
b0 ."
b110100010011 -"
b1 ,"
b0 +"
b0 *"
b0 )"
b0 ("
b0 '"
b1 &"
b0 %"
b0 $"
b0 #"
b0 ""
b0 !"
b1 ~
b1 }
b0 |
b0 {
b0 z
b0 y
b0 x
b0 w
b0 v
b0 u
0t
b0 s
b0 r
b0 q
b0 p
b0 o
b0 n
b0 m
b0 l
b0 k
b1 j
b1 i
b1 h
b0 g
b0 f
b1 e
b1 d
b0 c
b0 b
b0 a
b0 `
b0 _
b0 ^
b0 ]
b0 \
b0 [
b0 Z
b0 Y
b0 X
b0 W
b1 V
b0 U
b0 T
1S
b0 R
b1 Q
b0 P
b0 O
b0 N
b0 M
b0 L
b0 K
0J
b0 I
0H
0G
b0 F
0E
b0 D
b0 C
0B
b0 A
b1 @
b0 ?
b0 >
b0 =
0<
b0 ;
b1 :
b0 9
b0 8
b0 7
06
b0 5
b0 4
b0 3
b1 2
b0 1
b110100010011 0
b0 /
b0 .
b0 -
b0 ,
b110100010011 +
b110100010011 *
b0 )
b110100010011 (
b0 '
bx &
0%
1$
0#
0"
0!
$end
#10000
0$
#20000
b100000 C"
1$
#30000
0$
1%
#40000
b11010 7
b11010 _
b11010 v
b11010 )"
16
b110110010011 0
b110110010011 -"
b110110010011 1"
b110110010011 8"
b110110010011 (
b110110010011 *
b110110010011 +
b110110010011 9"
b11010 |
b10011 }
b110100010011 :
b110100010011 e
b110100010011 i
b110100010011 &"
b100 1
b100 /"
b100 4"
b100 7"
b100 '
b100 )
b100 /
b100 6"
b100 .
b100 :"
b100 <"
b110100010011 2
b110100010011 ~
b110100010011 ,"
b110100010011 2"
1$
#50000
0$
#60000
1B
b11010 D
b11010 \
b11010 ="
b11011 7
b11011 _
b11011 v
b11011 )"
b11010 U
b11010 P
b10011 Q
b11011 |
b100 ;
b100 g
b100 l
b100 %"
b110110010011 :
b110110010011 e
b110110010011 i
b110110010011 &"
b10010100010111 0
b10010100010111 -"
b10010100010111 1"
b10010100010111 8"
b10010100010111 (
b10010100010111 *
b10010100010111 +
b10010100010111 9"
b11010 =
b11010 O
b11010 ^
b11010 w
1<
b110100010011 @
b110100010011 V
b110100010011 d
b110100010011 j
b100 3
b100 !"
b100 ."
b100 5"
b110110010011 2
b110110010011 ~
b110110010011 ,"
b110110010011 2"
b1000 1
b1000 /"
b1000 4"
b1000 7"
b1000 '
b1000 )
b1000 /
b1000 6"
b1000 .
b1000 :"
b1000 <"
1$
#70000
0$
#80000
b1010 7
b1010 _
b1010 v
b1010 )"
b11011 D
b11011 \
b11011 ="
b1110001110001010000010100010011 0
b1110001110001010000010100010011 -"
b1110001110001010000010100010011 1"
b1110001110001010000010100010011 8"
b1110001110001010000010100010011 (
b1110001110001010000010100010011 *
b1110001110001010000010100010011 +
b1110001110001010000010100010011 9"
b10 $"
b1010 |
b10111 }
b1000 ;
b1000 g
b1000 l
b1000 %"
b10010100010111 :
b10010100010111 e
b10010100010111 i
b10010100010111 &"
b100000011010 U
b11011 P
b1100 1
b1100 /"
b1100 4"
b1100 7"
b1100 '
b1100 )
b1100 /
b1100 6"
b1100 .
b1100 :"
b1100 <"
b10010100010111 2
b10010100010111 ~
b10010100010111 ,"
b10010100010111 2"
b1000 3
b1000 !"
b1000 ."
b1000 5"
b110110010011 @
b110110010011 V
b110110010011 d
b110110010011 j
b100 A
b100 W
b100 f
b100 m
b11011 =
b11011 O
b11011 ^
b11011 w
1$
#90000
0$
#100000
b10000000001000 9
b10000000001000 c
b10000000001000 o
b10000000001000 '"
b10000000001000 -
b10000000001000 z
b10000000001000 A"
b1010 D
b1010 \
b1010 ="
b10000000001000 C
b10000000001000 ]
b10000000001000 >"
b11100011100 8
b11100011100 a
b11100011100 r
b11100011100 ("
b1010 5
b1010 *"
b1010 ?"
b1010 U
b10 Z
b1010 P
b10111 Q
b111000 #"
b11100 y
b11100011100 ""
b1010 {
b0 $"
b10011 }
b1100 ;
b1100 g
b1100 l
b1100 %"
b1110001110001010000010100010011 :
b1110001110001010000010100010011 e
b1110001110001010000010100010011 i
b1110001110001010000010100010011 &"
b10000000000010111101111 0
b10000000000010111101111 -"
b10000000000010111101111 1"
b10000000000010111101111 8"
b10000000000010111101111 (
b10000000000010111101111 *
b10000000000010111101111 +
b10000000000010111101111 9"
b1010 =
b1010 O
b1010 ^
b1010 w
b1000 A
b1000 W
b1000 f
b1000 m
b10010100010111 @
b10010100010111 V
b10010100010111 d
b10010100010111 j
b1100 3
b1100 !"
b1100 ."
b1100 5"
b1110001110001010000010100010011 2
b1110001110001010000010100010011 ~
b1110001110001010000010100010011 ,"
b1110001110001010000010100010011 2"
b10000 1
b10000 /"
b10000 4"
b10000 7"
b10000 '
b10000 )
b10000 /
b10000 6"
b10000 .
b10000 :"
b10000 <"
1$
#110000
0$
#120000
b1011 7
b1011 _
b1011 v
b1011 )"
b0 8
b0 a
b0 r
b0 ("
b0 9
b0 c
b0 o
b0 '"
b0 5
b0 *"
b0 ?"
b0 -
b0 z
b0 A"
b1000000101101010000010100110011 0
b1000000101101010000010100110011 -"
b1000000101101010000010100110011 1"
b1000000101101010000010100110011 8"
b1000000101101010000010100110011 (
b1000000101101010000010100110011 *
b1000000101101010000010100110011 +
b1000000101101010000010100110011 9"
b0 #"
b100 y
b100 ""
b0 {
b1011 |
b1101111 }
b10000 ;
b10000 g
b10000 l
b10000 %"
b10000000000010111101111 :
b10000000000010111101111 e
b10000000000010111101111 i
b10000000000010111101111 &"
b11100001010 U
b111000 Y
b11100 M
b11100011100 X
b1010 N
b0 Z
b10011 Q
0S
b10011100100100 C
b10011100100100 ]
b10011100100100 >"
b10100 1
b10100 /"
b10100 4"
b10100 7"
b10100 '
b10100 )
b10100 /
b10100 6"
b10100 .
b10100 :"
b10100 <"
b10000000000010111101111 2
b10000000000010111101111 ~
b10000000000010111101111 ,"
b10000000000010111101111 2"
b10000 3
b10000 !"
b10000 ."
b10000 5"
b1110001110001010000010100010011 @
b1110001110001010000010100010011 V
b1110001110001010000010100010011 d
b1110001110001010000010100010011 j
b1100 A
b1100 W
b1100 f
b1100 m
b10000000001000 ?
b10000000001000 T
b10000000001000 b
b10000000001000 p
b11100011100 >
b11100011100 R
b11100011100 `
b11100011100 s
1$
#130000
0$
#140000
b10100 8
b10100 a
b10100 r
b10100 ("
b10011100100100 9
b10011100100100 c
b10011100100100 o
b10011100100100 '"
b10100 ,
b10100 x
b10100 B"
b10011100100100 -
b10011100100100 z
b10011100100100 A"
1J
1H
b10100 I
b10100 L
b10100 ;"
b1011 D
b1011 \
b1011 ="
1E
b10100 F
b10100 K
b10100 [
b1010 7
b1010 _
b1010 v
b1010 )"
b1011 4
b1011 +"
b1011 @"
b1010 5
b1010 *"
b1010 ?"
1S
b100000001010 U
b0 Y
b100 M
b100 X
b0 N
b1011 P
b1101111 Q
b10100 C
b10100 ]
b10100 >"
b100000 #"
b1011 y
b10000001011 ""
b1010 {
b1010 |
b110011 }
b10100 ;
b10100 g
b10100 l
b10100 %"
b1000000101101010000010100110011 :
b1000000101101010000010100110011 e
b1000000101101010000010100110011 i
b1000000101101010000010100110011 &"
b10111010110111 0
b10111010110111 -"
b10111010110111 1"
b10111010110111 8"
b10111010110111 (
b10111010110111 *
b10111010110111 +
b10111010110111 9"
b1011 =
b1011 O
b1011 ^
b1011 w
b0 >
b0 R
b0 `
b0 s
b0 ?
b0 T
b0 b
b0 p
b10000 A
b10000 W
b10000 f
b10000 m
b10000000000010111101111 @
b10000000000010111101111 V
b10000000000010111101111 d
b10000000000010111101111 j
b10100 3
b10100 !"
b10100 ."
b10100 5"
b1000000101101010000010100110011 2
b1000000101101010000010100110011 ~
b1000000101101010000010100110011 ,"
b1000000101101010000010100110011 2"
b11000 1
b11000 /"
b11000 4"
b11000 7"
b11000 '
b11000 )
b11000 /
b11000 6"
b11000 .
b11000 :"
b11000 <"
1$
#150000
0$
#160000
b0 -
b0 z
b0 A"
0J
0H
b0 7
b0 _
b0 v
b0 )"
06
b0 8
b0 a
b0 r
b0 ("
b0 9
b0 c
b0 o
b0 '"
b0 4
b0 +"
b0 @"
b0 5
b0 *"
b0 ?"
0B
b0 D
b0 \
b0 ="
0E
b0 ,
b0 x
b0 B"
b0 I
b0 L
b0 ;"
b1000000101101010000010100110011 0
b1000000101101010000010100110011 -"
b1000000101101010000010100110011 1"
b1000000101101010000010100110011 8"
b1000000101101010000010100110011 (
b1000000101101010000010100110011 *
b1000000101101010000010100110011 +
b1000000101101010000010100110011 9"
b0 #"
b0 y
b0 ""
b0 {
b0 |
b1 }
b0 ;
b0 g
b0 l
b0 %"
b1 :
b1 e
b1 i
b1 &"
b0 U
b0 M
b0 X
b0 P
b1 Q
b0 C
b0 ]
b0 >"
b0 F
b0 K
b0 [
b10100 1
b10100 /"
b10100 4"
b10100 7"
b10100 '
b10100 )
b10100 /
b10100 6"
b10100 .
b10100 :"
b10100 <"
b1 2
b1 ~
b1 ,"
b1 2"
b0 3
b0 !"
b0 ."
b0 5"
b1 @
b1 V
b1 d
b1 j
b0 A
b0 W
b0 f
b0 m
0<
b0 =
b0 O
b0 ^
b0 w
1$
#170000
0$
#180000
b10100 8
b10100 a
b10100 r
b10100 ("
b10011100100100 9
b10011100100100 c
b10011100100100 o
b10011100100100 '"
b10100 ,
b10100 x
b10100 B"
b10011100100100 -
b10011100100100 z
b10011100100100 A"
b1010 7
b1010 _
b1010 v
b1010 )"
16
b1011 4
b1011 +"
b1011 @"
b1010 5
b1010 *"
b1010 ?"
b100000 #"
b1011 y
b10000001011 ""
b1010 {
b1010 |
b110011 }
b10100 ;
b10100 g
b10100 l
b10100 %"
b1000000101101010000010100110011 :
b1000000101101010000010100110011 e
b1000000101101010000010100110011 i
b1000000101101010000010100110011 &"
b10111010110111 0
b10111010110111 -"
b10111010110111 1"
b10111010110111 8"
b10111010110111 (
b10111010110111 *
b10111010110111 +
b10111010110111 9"
b10100 3
b10100 !"
b10100 ."
b10100 5"
b1000000101101010000010100110011 2
b1000000101101010000010100110011 ~
b1000000101101010000010100110011 ,"
b1000000101101010000010100110011 2"
b11000 1
b11000 /"
b11000 4"
b11000 7"
b11000 '
b11000 )
b11000 /
b11000 6"
b11000 .
b11000 :"
b11000 <"
1$
#190000
0$
#200000
b0 ,
b0 x
b0 B"
b0 -
b0 z
b0 A"
b11101 7
b11101 _
b11101 v
b11101 )"
b0 8
b0 a
b0 r
b0 ("
b0 9
b0 c
b0 o
b0 '"
b0 4
b0 +"
b0 @"
b0 5
b0 *"
b0 ?"
1B
b1010 D
b1010 \
b1010 ="
b10011100010000 C
b10011100010000 ]
b10011100010000 >"
b1110001000011101000111010010011 0
b1110001000011101000111010010011 -"
b1110001000011101000111010010011 1"
b1110001000011101000111010010011 8"
b1110001000011101000111010010011 (
b1110001000011101000111010010011 *
b1110001000011101000111010010011 +
b1110001000011101000111010010011 9"
b0 #"
b0 y
b0 ""
b0 {
b10 $"
b11101 |
b110111 }
b11000 ;
b11000 g
b11000 l
b11000 %"
b10111010110111 :
b10111010110111 e
b10111010110111 i
b10111010110111 &"
b10000001010 U
b100000 Y
b1011 M
b10000001011 X
b1010 N
b1010 P
b110011 Q
0S
b11100 1
b11100 /"
b11100 4"
b11100 7"
b11100 '
b11100 )
b11100 /
b11100 6"
b11100 .
b11100 :"
b11100 <"
b10111010110111 2
b10111010110111 ~
b10111010110111 ,"
b10111010110111 2"
b11000 3
b11000 !"
b11000 ."
b11000 5"
b1000000101101010000010100110011 @
b1000000101101010000010100110011 V
b1000000101101010000010100110011 d
b1000000101101010000010100110011 j
b10100 A
b10100 W
b10100 f
b10100 m
b10011100100100 ?
b10011100100100 T
b10011100100100 b
b10011100100100 p
b10100 >
b10100 R
b10100 `
b10100 s
1<
b1010 =
b1010 O
b1010 ^
b1010 w
1$
#210000
0$
#220000
b10000000000000 9
b10000000000000 c
b10000000000000 o
b10000000000000 '"
b10000000000000 -
b10000000000000 z
b10000000000000 A"
b11101 D
b11101 \
b11101 ="
b11100010000 8
b11100010000 a
b11100010000 r
b11100010000 ("
b11101 5
b11101 *"
b11101 ?"
1S
b100000011100 U
b0 Y
b0 M
b0 X
b0 N
b10 Z
b11101 P
b110111 Q
b10000000000000 C
b10000000000000 ]
b10000000000000 >"
b111000 #"
b10000 y
b11100010000 ""
b11101 {
b0 $"
b10011 }
b11100 ;
b11100 g
b11100 l
b11100 %"
b1110001000011101000111010010011 :
b1110001000011101000111010010011 e
b1110001000011101000111010010011 i
b1110001000011101000111010010011 &"
b1000000000000110010011 0
b1000000000000110010011 -"
b1000000000000110010011 1"
b1000000000000110010011 8"
b1000000000000110010011 (
b1000000000000110010011 *
b1000000000000110010011 +
b1000000000000110010011 9"
b11101 =
b11101 O
b11101 ^
b11101 w
b0 >
b0 R
b0 `
b0 s
b0 ?
b0 T
b0 b
b0 p
b11000 A
b11000 W
b11000 f
b11000 m
b10111010110111 @
b10111010110111 V
b10111010110111 d
b10111010110111 j
b11100 3
b11100 !"
b11100 ."
b11100 5"
b1110001000011101000111010010011 2
b1110001000011101000111010010011 ~
b1110001000011101000111010010011 ,"
b1110001000011101000111010010011 2"
b100000 1
b100000 /"
b100000 4"
b100000 7"
b100000 '
b100000 )
b100000 /
b100000 6"
b100000 .
b100000 :"
b100000 <"
1$
#230000
0$
#240000
b11 7
b11 _
b11 v
b11 )"
b10 8
b10 a
b10 r
b10 ("
b0 9
b0 c
b0 o
b0 '"
b0 5
b0 *"
b0 ?"
b0 -
b0 z
b0 A"
b11110101010001010001100011 0
b11110101010001010001100011 -"
b11110101010001010001100011 1"
b11110101010001010001100011 8"
b11110101010001010001100011 (
b11110101010001010001100011 *
b11110101010001010001100011 +
b11110101010001010001100011 9"
b0 #"
b10 y
b10 ""
b0 {
b11 |
b100000 ;
b100000 g
b100000 l
b100000 %"
b1000000000000110010011 :
b1000000000000110010011 e
b1000000000000110010011 i
b1000000000000110010011 &"
b111100011100 U
b111000 Y
b10000 M
b11100010000 X
b11101 N
b0 Z
b10011 Q
0S
b10011100010000 C
b10011100010000 ]
b10011100010000 >"
b100100 1
b100100 /"
b100100 4"
b100100 7"
b100100 '
b100100 )
b100100 /
b100100 6"
b100100 .
b100100 :"
b100100 <"
b1000000000000110010011 2
b1000000000000110010011 ~
b1000000000000110010011 ,"
b1000000000000110010011 2"
b100000 3
b100000 !"
b100000 ."
b100000 5"
b1110001000011101000111010010011 @
b1110001000011101000111010010011 V
b1110001000011101000111010010011 d
b1110001000011101000111010010011 j
b11100 A
b11100 W
b11100 f
b11100 m
b10000000000000 ?
b10000000000000 T
b10000000000000 b
b10000000000000 p
b11100010000 >
b11100010000 R
b11100010000 `
b11100010000 s
1$
#250000
0$
#260000
b10011100010000 9
b10011100010000 c
b10011100010000 o
b10011100010000 '"
b11 D
b11 \
b11 ="
b10011100010000 ,
b10011100010000 x
b10011100010000 B"
b10011100010000 -
b10011100010000 z
b10011100010000 A"
b0 7
b0 _
b0 v
b0 )"
06
b10011100010000 8
b10011100010000 a
b10011100010000 r
b10011100010000 ("
b11101 4
b11101 +"
b11101 @"
b1010 5
b1010 *"
b1010 ?"
b100000000010 U
b0 Y
b10 M
b10 X
b0 N
b11 P
b10 C
b10 ]
b10 >"
b1 #"
b11101 y
b111101 ""
b1010 {
b1 $"
b1000 |
b1100011 }
b100100 ;
b100100 g
b100100 l
b100100 %"
b11110101010001010001100011 :
b11110101010001010001100011 e
b11110101010001010001100011 i
b11110101010001010001100011 &"
b11111111111111111110010100010111 0
b11111111111111111110010100010111 -"
b11111111111111111110010100010111 1"
b11111111111111111110010100010111 8"
b11111111111111111110010100010111 (
b11111111111111111110010100010111 *
b11111111111111111110010100010111 +
b11111111111111111110010100010111 9"
b11 =
b11 O
b11 ^
b11 w
b10 >
b10 R
b10 `
b10 s
b0 ?
b0 T
b0 b
b0 p
b100000 A
b100000 W
b100000 f
b100000 m
b1000000000000110010011 @
b1000000000000110010011 V
b1000000000000110010011 d
b1000000000000110010011 j
b100100 3
b100100 !"
b100100 ."
b100100 5"
b11110101010001010001100011 2
b11110101010001010001100011 ~
b11110101010001010001100011 ,"
b11110101010001010001100011 2"
b101000 1
b101000 /"
b101000 4"
b101000 7"
b101000 '
b101000 )
b101000 /
b101000 6"
b101000 .
b101000 :"
b101000 <"
1$
#270000
0$
#280000
b1001100 I
b1001100 L
b1001100 ;"
b0 ,
b0 x
b0 B"
b0 -
b0 z
b0 A"
b1010 7
b1010 _
b1010 v
b1010 )"
16
b0 8
b0 a
b0 r
b0 ("
b0 9
b0 c
b0 o
b0 '"
b0 4
b0 +"
b0 @"
b0 5
b0 *"
b0 ?"
b1001100 F
b1001100 K
b1001100 [
b0 D
b0 \
b0 ="
b10001111110001010000010100010011 0
b10001111110001010000010100010011 -"
b10001111110001010000010100010011 1"
b10001111110001010000010100010011 8"
b10001111110001010000010100010011 (
b10001111110001010000010100010011 *
b10001111110001010000010100010011 +
b10001111110001010000010100010011 9"
b1111111 #"
b11111 y
b111111111111 ""
b11111 {
b110 $"
b1010 |
b10111 }
b101000 ;
b101000 g
b101000 l
b101000 %"
b11111111111111111110010100010111 :
b11111111111111111110010100010111 e
b11111111111111111110010100010111 i
b11111111111111111110010100010111 &"
b101000 U
b1 Y
b11101 M
b111101 X
b1010 N
b1 Z
b1000 P
b1100011 Q
1S
0B
b0 C
b0 ]
b0 >"
b101100 1
b101100 /"
b101100 4"
b101100 7"
b101100 '
b101100 )
b101100 /
b101100 6"
b101100 .
b101100 :"
b101100 <"
b11111111111111111110010100010111 2
b11111111111111111110010100010111 ~
b11111111111111111110010100010111 ,"
b11111111111111111110010100010111 2"
b101000 3
b101000 !"
b101000 ."
b101000 5"
b11110101010001010001100011 @
b11110101010001010001100011 V
b11110101010001010001100011 d
b11110101010001010001100011 j
b100100 A
b100100 W
b100100 f
b100100 m
b10011100010000 ?
b10011100010000 T
b10011100010000 b
b10011100010000 p
b10011100010000 >
b10011100010000 R
b10011100010000 `
b10011100010000 s
0<
b0 =
b0 O
b0 ^
b0 w
1$
#290000
0$
#300000
b11111111111111111110000000101000 9
b11111111111111111110000000101000 c
b11111111111111111110000000101000 o
b11111111111111111110000000101000 '"
b11111111111111111110000000101000 -
b11111111111111111110000000101000 z
b11111111111111111110000000101000 A"
1B
b1010 D
b1010 \
b1010 ="
b11111111111111111110000000101000 C
b11111111111111111110000000101000 ]
b11111111111111111110000000101000 >"
b0 I
b0 L
b0 ;"
b11111111111111111111100011111100 8
b11111111111111111111100011111100 a
b11111111111111111111100011111100 r
b11111111111111111111100011111100 ("
b1010 5
b1010 *"
b1010 ?"
b11111111111111111111011111101010 U
b1111111 Y
b11111 M
b111111111111 X
b11111 N
b110 Z
b1010 P
b10111 Q
b0 F
b0 K
b0 [
b1000111 #"
b11100 y
b100011111100 ""
b1010 {
b0 $"
b10011 }
b101100 ;
b101100 g
b101100 l
b101100 %"
b10001111110001010000010100010011 :
b10001111110001010000010100010011 e
b10001111110001010000010100010011 i
b10001111110001010000010100010011 &"
b10000000000010111101111 0
b10000000000010111101111 -"
b10000000000010111101111 1"
b10000000000010111101111 8"
b10000000000010111101111 (
b10000000000010111101111 *
b10000000000010111101111 +
b10000000000010111101111 9"
b1010 =
b1010 O
b1010 ^
b1010 w
1<
b0 >
b0 R
b0 `
b0 s
b0 ?
b0 T
b0 b
b0 p
b101000 A
b101000 W
b101000 f
b101000 m
b11111111111111111110010100010111 @
b11111111111111111110010100010111 V
b11111111111111111110010100010111 d
b11111111111111111110010100010111 j
b101100 3
b101100 !"
b101100 ."
b101100 5"
b10001111110001010000010100010011 2
b10001111110001010000010100010011 ~
b10001111110001010000010100010011 ,"
b10001111110001010000010100010011 2"
b110000 1
b110000 /"
b110000 4"
b110000 7"
b110000 '
b110000 )
b110000 /
b110000 6"
b110000 .
b110000 :"
b110000 <"
1$
#310000
0$
