tb/gtk.vcd
$date
	Tue May 10 21:43:56 2022
$end
$version
	Icarus Verilog
$end
$timescale
	1ps
$end
$scope module tb $end
$var wire 1 ! x3 $end
$var wire 1 " x27 $end
$var wire 1 # x26 $end
$var reg 1 $ clk $end
$var reg 1 % rst $end
$var integer 32 & r [31:0] $end
$scope module rv_soc_ins $end
$var wire 1 $ clk $end
$var wire 1 % rst $end
$var wire 32 ' rv_core_inst_addr_o [31:0] $end
$var wire 32 ( rom_inst_o [31:0] $end
$scope module rom_ins $end
$var wire 32 ) inst_addr_i [31:0] $end
$var reg 32 * inst_o [31:0] $end
$upscope $end
$scope module rv_core_ins $end
$var wire 1 $ clk $end
$var wire 32 + inst_i [31:0] $end
$var wire 1 % rst $end
$var wire 32 , regs_reg2_rdata_o [31:0] $end
$var wire 32 - regs_reg1_rdata_o [31:0] $end
$var wire 32 . pc_reg_pc_o [31:0] $end
$var wire 32 / inst_addr_o [31:0] $end
$var wire 32 0 ifetch_inst_o [31:0] $end
$var wire 32 1 ifetch_inst_addr_o [31:0] $end
$var wire 32 2 if_id_inst_o [31:0] $end
$var wire 32 3 if_id_inst_addr_o [31:0] $end
$var wire 5 4 id_rs2_addr_o [4:0] $end
$var wire 5 5 id_rs1_addr_o [4:0] $end
$var wire 1 6 id_reg_wen $end
$var wire 5 7 id_rd_addr_o [4:0] $end
$var wire 32 8 id_op2_o [31:0] $end
$var wire 32 9 id_op1_o [31:0] $end
$var wire 32 : id_inst_o [31:0] $end
$var wire 32 ; id_inst_addr_o [31:0] $end
$var wire 1 < id_ex_reg_wen_o $end
$var wire 5 = id_ex_rd_addr_o [4:0] $end
$var wire 32 > id_ex_op2_o [31:0] $end
$var wire 32 ? id_ex_op1_o [31:0] $end
$var wire 32 @ id_ex_inst_o [31:0] $end
$var wire 32 A id_ex_inst_addr_o [31:0] $end
$var wire 1 B ex_reg_wen_o $end
$var wire 32 C ex_rd_data_o [31:0] $end
$var wire 5 D ex_rd_addr_o [4:0] $end
$var wire 1 E ex_jump_en_o $end
$var wire 32 F ex_jump_addr_o [31:0] $end
$var wire 1 G ex_hold_flag_o $end
$var wire 1 H ctrl_jump_en_o $end
$var wire 32 I ctrl_jump_addr_o [31:0] $end
$var wire 1 J ctrl_hold_flag_o $end
$scope module ctrl_ins $end
$var wire 1 % rst $end
$var wire 1 E jump_en_i $end
$var wire 32 K jump_addr_i [31:0] $end
$var wire 1 G hold_flag_i $end
$var reg 1 J hold_flag_o $end
$var reg 32 L jump_addr_o [31:0] $end
$var reg 1 H jump_en_o $end
$upscope $end
$scope module ex_ins $end
$var wire 1 M uns_op1_i_lt_op2_i $end
$var wire 1 N s_op1_i_lt_op2_i $end
$var wire 5 O rs2 [4:0] $end
$var wire 5 P rs1 [4:0] $end
$var wire 1 < reg_wen_i $end
$var wire 5 Q rd_addr_i [4:0] $end
$var wire 5 R rd [4:0] $end
$var wire 7 S opcode [6:0] $end
$var wire 32 T op2_i [31:0] $end
$var wire 1 U op1_i_equal_op2_i $end
$var wire 32 V op1_i [31:0] $end
$var wire 32 W jump_imm [31:0] $end
$var wire 32 X inst_i [31:0] $end
$var wire 32 Y inst_addr_i [31:0] $end
$var wire 12 Z imm [11:0] $end
$var wire 7 [ funct7 [6:0] $end
$var wire 3 \ funct3 [2:0] $end
$var reg 1 G hold_flag_o $end
$var reg 32 ] jump_addr_o [31:0] $end
$var reg 1 E jump_en_o $end
$var reg 5 ^ rd_addr_o [4:0] $end
$var reg 32 _ rd_data_o [31:0] $end
$var reg 1 B reg_wen_o $end
$upscope $end
$scope module id_ex_ins $end
$var wire 1 $ clk $end
$var wire 1 J hold_flag_i $end
$var wire 1 % rst $end
$var wire 1 < reg_wen_o $end
$var wire 1 6 reg_wen_i $end
$var wire 5 ` rd_addr_o [4:0] $end
$var wire 5 a rd_addr_i [4:0] $end
$var wire 32 b op2_o [31:0] $end
$var wire 32 c op2_i [31:0] $end
$var wire 32 d op1_o [31:0] $end
$var wire 32 e op1_i [31:0] $end
$var wire 32 f inst_o [31:0] $end
$var wire 32 g inst_i [31:0] $end
$var wire 32 h inst_addr_o [31:0] $end
$var wire 32 i inst_addr_i [31:0] $end
$scope module dff1 $end
$var wire 1 $ clk $end
$var wire 1 J hold_flag_i $end
$var wire 1 % rst $end
$var wire 32 j set_data [31:0] $end
$var wire 32 k data_i [31:0] $end
$var reg 32 l data_o [31:0] $end
$upscope $end
$scope module dff2 $end
$var wire 1 $ clk $end
$var wire 1 J hold_flag_i $end
$var wire 1 % rst $end
$var wire 32 m set_data [31:0] $end
$var wire 32 n data_i [31:0] $end
$var reg 32 o data_o [31:0] $end
$upscope $end
$scope module dff3 $end
$var wire 1 $ clk $end
$var wire 1 J hold_flag_i $end
$var wire 1 % rst $end
$var wire 32 p set_data [31:0] $end
$var wire 32 q data_i [31:0] $end
$var reg 32 r data_o [31:0] $end
$upscope $end
$scope module dff4 $end
$var wire 1 $ clk $end
$var wire 1 J hold_flag_i $end
$var wire 1 % rst $end
$var wire 32 s set_data [31:0] $end
$var wire 32 t data_i [31:0] $end
$var reg 32 u data_o [31:0] $end
$upscope $end
$scope module dff5 $end
$var wire 1 $ clk $end
$var wire 1 J hold_flag_i $end
$var wire 1 % rst $end
$var wire 1 v set_data $end
$var wire 1 6 data_i $end
$var reg 1 < data_o $end
$upscope $end
$scope module dff6 $end
$var wire 1 $ clk $end
$var wire 1 J hold_flag_i $end
$var wire 1 % rst $end
$var wire 5 w set_data [4:0] $end
$var wire 5 x data_i [4:0] $end
$var reg 5 y data_o [4:0] $end
$upscope $end
$upscope $end
$scope module id_ins $end
$var wire 32 z rs2_data_i [31:0] $end
$var wire 5 { rs2 [4:0] $end
$var wire 32 | rs1_data_i [31:0] $end
$var wire 5 } rs1 [4:0] $end
$var wire 5 ~ rd [4:0] $end
$var wire 7 !" opcode [6:0] $end
$var wire 32 "" inst_i [31:0] $end
$var wire 32 #" inst_addr_i [31:0] $end
$var wire 12 $" imm [11:0] $end
$var wire 7 %" funct7 [6:0] $end
$var wire 3 &" funct3 [2:0] $end
$var reg 32 '" inst_addr_o [31:0] $end
$var reg 32 (" inst_o [31:0] $end
$var reg 32 )" op1_o [31:0] $end
$var reg 32 *" op2_o [31:0] $end
$var reg 5 +" rd_addr_o [4:0] $end
$var reg 1 6 reg_wen $end
$var reg 5 ," rs1_addr_o [4:0] $end
$var reg 5 -" rs2_addr_o [4:0] $end
$upscope $end
$scope module if_id_ins $end
$var wire 1 $ clk $end
$var wire 1 J hold_flag_i $end
$var wire 1 % rst $end
$var wire 32 ." inst_o [31:0] $end
$var wire 32 /" inst_i [31:0] $end
$var wire 32 0" inst_addr_o [31:0] $end
$var wire 32 1" inst_addr_i [31:0] $end
$scope module dff1 $end
$var wire 1 $ clk $end
$var wire 1 J hold_flag_i $end
$var wire 1 % rst $end
$var wire 32 2" set_data [31:0] $end
$var wire 32 3" data_i [31:0] $end
$var reg 32 4" data_o [31:0] $end
$upscope $end
$scope module dff2 $end
$var wire 1 $ clk $end
$var wire 1 J hold_flag_i $end
$var wire 1 % rst $end
$var wire 32 5" set_data [31:0] $end
$var wire 32 6" data_i [31:0] $end
$var reg 32 7" data_o [31:0] $end
$upscope $end
$upscope $end
$scope module ifetch_ins $end
$var wire 32 8" if2rom_addr_o [31:0] $end
$var wire 32 9" inst_addr_o [31:0] $end
$var wire 32 :" inst_o [31:0] $end
$var wire 32 ;" rom_inst_i [31:0] $end
$var wire 32 <" pc_addr_i [31:0] $end
$upscope $end
$scope module pc_reg_ins $end
$var wire 1 $ clk $end
$var wire 32 =" jump_addr_i [31:0] $end
$var wire 1 H jump_en_i $end
$var wire 1 % rst $end
$var reg 32 >" pc_o [31:0] $end
$upscope $end
$scope module regs_ins $end
$var wire 1 $ clk $end
$var wire 5 ?" rd_addr_i [4:0] $end
$var wire 32 @" rd_data_i [31:0] $end
$var wire 5 A" reg1_raddr_i [4:0] $end
$var wire 5 B" reg2_raddr_i [4:0] $end
$var wire 1 B reg_wen $end
$var wire 1 % rst $end
$var reg 32 C" reg1_rdata_o [31:0] $end
$var reg 32 D" reg2_rdata_o [31:0] $end
$var integer 32 E" i [31:0] $end
$upscope $end
$upscope $end
$upscope $end
$upscope $end
$enddefinitions $end
#0
$dumpvars
b100000 E"
b0 D"
b0 C"
b0 B"
b0 A"
b0 @"
b0 ?"
b0 >"
b0 ="
b0 <"
b110100010011 ;"
b110100010011 :"
b0 9"
b0 8"
b0 7"
b0 6"
b0 5"
b1 4"
b110100010011 3"
b1 2"
b0 1"
b0 0"
b110100010011 /"
b1 ."
b0 -"
b0 ,"
b0 +"
b0 *"
b0 )"
b1 ("
b0 '"
b0 &"
b0 %"
b0 $"
b0 #"
b1 ""
b1 !"
b0 ~
b0 }
b0 |
b0 {
b0 z
b0 y
b0 x
b0 w
0v
b0 u
b0 t
b0 s
b0 r
b0 q
b0 p
b0 o
b0 n
b0 m
b1 l
b1 k
b1 j
b0 i
b0 h
b1 g
b1 f
b0 e
b0 d
b0 c
b0 b
b0 a
b0 `
b0 _
b0 ^
b0 ]
b0 \
b0 [
b0 Z
b0 Y
b1 X
b0 W
b0 V
1U
b0 T
b1 S
b0 R
b0 Q
b0 P
b0 O
0N
0M
b0 L
b0 K
0J
b0 I
0H
0G
b0 F
0E
b0 D
b0 C
0B
b0 A
b1 @
b0 ?
b0 >
b0 =
0<
b0 ;
b1 :
b0 9
b0 8
b0 7
06
b0 5
b0 4
b0 3
b1 2
b0 1
b110100010011 0
b0 /
b0 .
b0 -
b0 ,
b110100010011 +
b110100010011 *
b0 )
b110100010011 (
b0 '
bx &
0%
1$
0#
0"
0!
$end
#10000
0$
#20000
b100000 E"
1$
#30000
0$
1%
#40000
b11010 7
b11010 a
b11010 x
b11010 +"
16
b110110010011 0
b110110010011 /"
b110110010011 3"
b110110010011 :"
b110110010011 (
b110110010011 *
b110110010011 +
b110110010011 ;"
b11010 ~
b10011 !"
b110100010011 :
b110100010011 g
b110100010011 k
b110100010011 ("
b100 1
b100 1"
b100 6"
b100 9"
b100 '
b100 )
b100 /
b100 8"
b100 .
b100 <"
b100 >"
b110100010011 2
b110100010011 ""
b110100010011 ."
b110100010011 4"
1$
#50000
0$
#60000
1B
b11010 D
b11010 ^
b11010 ?"
b11011 7
b11011 a
b11011 x
b11011 +"
b11010 W
b11010 R
b10011 S
b11011 ~
b100 ;
b100 i
b100 n
b100 '"
b110110010011 :
b110110010011 g
b110110010011 k
b110110010011 ("
b1000000000000110010011 0
b1000000000000110010011 /"
b1000000000000110010011 3"
b1000000000000110010011 :"
b1000000000000110010011 (
b1000000000000110010011 *
b1000000000000110010011 +
b1000000000000110010011 ;"
b11010 =
b11010 Q
b11010 `
b11010 y
1<
b110100010011 @
b110100010011 X
b110100010011 f
b110100010011 l
b100 3
b100 #"
b100 0"
b100 7"
b110110010011 2
b110110010011 ""
b110110010011 ."
b110110010011 4"
b1000 1
b1000 1"
b1000 6"
b1000 9"
b1000 '
b1000 )
b1000 /
b1000 8"
b1000 .
b1000 <"
b1000 >"
1$
#70000
0$
#80000
b11 7
b11 a
b11 x
b11 +"
b10 8
b10 c
b10 t
b10 *"
b11011 D
b11011 ^
b11011 ?"
b1010010011 0
b1010010011 /"
b1010010011 3"
b1010010011 :"
b1010010011 (
b1010010011 *
b1010010011 +
b1010010011 ;"
b10 {
b10 $"
b11 ~
b1000 ;
b1000 i
b1000 n
b1000 '"
b1000000000000110010011 :
b1000000000000110010011 g
b1000000000000110010011 k
b1000000000000110010011 ("
b100000011010 W
b11011 R
b1100 1
b1100 1"
b1100 6"
b1100 9"
b1100 '
b1100 )
b1100 /
b1100 8"
b1100 .
b1100 <"
b1100 >"
b1000000000000110010011 2
b1000000000000110010011 ""
b1000000000000110010011 ."
b1000000000000110010011 4"
b1000 3
b1000 #"
b1000 0"
b1000 7"
b110110010011 @
b110110010011 X
b110110010011 f
b110110010011 l
b100 A
b100 Y
b100 h
b100 o
b11011 =
b11011 Q
b11011 `
b11011 y
1$
#90000
0$
#100000
b11 D
b11 ^
b11 ?"
b101 7
b101 a
b101 x
b101 +"
b0 8
b0 c
b0 t
b0 *"
1N
1M
0U
b100000000010 W
b10 O
b10 Z
b11 R
b10 C
b10 _
b10 @"
b0 {
b0 $"
b101 ~
b1100 ;
b1100 i
b1100 n
b1100 '"
b1010010011 :
b1010010011 g
b1010010011 k
b1010010011 ("
b1100010111 0
b1100010111 /"
b1100010111 3"
b1100010111 :"
b1100010111 (
b1100010111 *
b1100010111 +
b1100010111 ;"
b11 =
b11 Q
b11 `
b11 y
b10 >
b10 T
b10 b
b10 u
b1000 A
b1000 Y
b1000 h
b1000 o
b1000000000000110010011 @
b1000000000000110010011 X
b1000000000000110010011 f
b1000000000000110010011 l
b1100 3
b1100 #"
b1100 0"
b1100 7"
b1010010011 2
b1010010011 ""
b1010010011 ."
b1010010011 4"
b10000 1
b10000 1"
b10000 6"
b10000 9"
b10000 '
b10000 )
b10000 /
b10000 8"
b10000 .
b10000 <"
b10000 >"
1$
#110000
0$
#120000
b110 7
b110 a
b110 x
b110 +"
b101 D
b101 ^
b101 ?"
b1000000110000001100010011 0
b1000000110000001100010011 /"
b1000000110000001100010011 3"
b1000000110000001100010011 :"
b1000000110000001100010011 (
b1000000110000001100010011 *
b1000000110000001100010011 +
b1000000110000001100010011 ;"
b110 ~
b10111 !"
b10000 ;
b10000 i
b10000 n
b10000 '"
b1100010111 :
b1100010111 g
b1100010111 k
b1100010111 ("
b100000000100 W
b0 O
b0 Z
b101 R
0N
0M
1U
b0 C
b0 _
b0 @"
b10100 1
b10100 1"
b10100 6"
b10100 9"
b10100 '
b10100 )
b10100 /
b10100 8"
b10100 .
b10100 <"
b10100 >"
b1100010111 2
b1100010111 ""
b1100010111 ."
b1100010111 4"
b10000 3
b10000 #"
b10000 0"
b10000 7"
b1010010011 @
b1010010011 X
b1010010011 f
b1010010011 l
b1100 A
b1100 Y
b1100 h
b1100 o
b0 >
b0 T
b0 b
b0 u
b101 =
b101 Q
b101 `
b101 y
1$
#130000
0$
#140000
b10000 9
b10000 e
b10000 q
b10000 )"
b10000 -
b10000 |
b10000 C"
b110 D
b110 ^
b110 ?"
b10000 C
b10000 _
b10000 @"
b10000 8
b10000 c
b10000 t
b10000 *"
b110 5
b110 ,"
b110 A"
b110 W
b110 R
b10111 S
b10000 {
b10000 $"
b110 }
b10011 !"
b10100 ;
b10100 i
b10100 n
b10100 '"
b1000000110000001100010011 :
b1000000110000001100010011 g
b1000000110000001100010011 k
b1000000110000001100010011 ("
b110000001011100111 0
b110000001011100111 /"
b110000001011100111 3"
b110000001011100111 :"
b110000001011100111 (
b110000001011100111 *
b110000001011100111 +
b110000001011100111 ;"
b110 =
b110 Q
b110 `
b110 y
b10000 A
b10000 Y
b10000 h
b10000 o
b1100010111 @
b1100010111 X
b1100010111 f
b1100010111 l
b10100 3
b10100 #"
b10100 0"
b10100 7"
b1000000110000001100010011 2
b1000000110000001100010011 ""
b1000000110000001100010011 ."
b1000000110000001100010011 4"
b11000 1
b11000 1"
b11000 6"
b11000 9"
b11000 '
b11000 )
b11000 /
b11000 8"
b11000 .
b11000 <"
b11000 >"
1$
#150000
0$
#160000
b101 7
b101 a
b101 x
b101 +"
b0 8
b0 c
b0 t
b0 *"
b100000 9
b100000 e
b100000 q
b100000 )"
b100000 -
b100000 |
b100000 C"
b1100000000000000000001101111 0
b1100000000000000000001101111 /"
b1100000000000000000001101111 3"
b1100000000000000000001101111 :"
b1100000000000000000001101111 (
b1100000000000000000001101111 *
b1100000000000000000001101111 +
b1100000000000000000001101111 ;"
b0 {
b0 $"
b101 ~
b1100111 !"
b11000 ;
b11000 i
b11000 n
b11000 '"
b110000001011100111 :
b110000001011100111 g
b110000001011100111 k
b110000001011100111 ("
b10000 O
b10000 Z
b110 P
b10011 S
b100000 C
b100000 _
b100000 @"
b11100 1
b11100 1"
b11100 6"
b11100 9"
b11100 '
b11100 )
b11100 /
b11100 8"
b11100 .
b11100 <"
b11100 >"
b110000001011100111 2
b110000001011100111 ""
b110000001011100111 ."
b110000001011100111 4"
b11000 3
b11000 #"
b11000 0"
b11000 7"
b1000000110000001100010011 @
b1000000110000001100010011 X
b1000000110000001100010011 f
b1000000110000001100010011 l
b10100 A
b10100 Y
b10100 h
b10100 o
b10000 ?
b10000 V
b10000 d
b10000 r
b10000 >
b10000 T
b10000 b
b10000 u
1$
#170000
0$
#180000
1J
1H
b100000 I
b100000 L
b100000 ="
b0 -
b0 |
b0 C"
b101 D
b101 ^
b101 ?"
b11100 C
b11100 _
b11100 @"
1E
b100000 F
b100000 K
b100000 ]
b0 7
b0 a
b0 x
b0 +"
b0 9
b0 e
b0 q
b0 )"
b0 5
b0 ,"
b0 A"
0U
b100000000100 W
b0 O
b0 Z
b101 R
b1100111 S
b110 %"
b11000000 $"
b0 }
b0 ~
b1101111 !"
b11100 ;
b11100 i
b11100 n
b11100 '"
b1100000000000000000001101111 :
b1100000000000000000001101111 g
b1100000000000000000001101111 k
b1100000000000000000001101111 ("
b1100010111 0
b1100010111 /"
b1100010111 3"
b1100010111 :"
b1100010111 (
b1100010111 *
b1100010111 +
b1100010111 ;"
b101 =
b101 Q
b101 `
b101 y
b0 >
b0 T
b0 b
b0 u
b100000 ?
b100000 V
b100000 d
b100000 r
b11000 A
b11000 Y
b11000 h
b11000 o
b110000001011100111 @
b110000001011100111 X
b110000001011100111 f
b110000001011100111 l
b11100 3
b11100 #"
b11100 0"
b11100 7"
b1100000000000000000001101111 2
b1100000000000000000001101111 ""
b1100000000000000000001101111 ."
b1100000000000000000001101111 4"
b100000 1
b100000 1"
b100000 6"
b100000 9"
b100000 '
b100000 )
b100000 /
b100000 8"
b100000 .
b100000 <"
b100000 >"
1$
#190000
0$
#200000
0J
0H
06
0B
b0 D
b0 ^
b0 ?"
0E
b0 I
b0 L
b0 ="
b0 %"
b0 $"
b1 !"
b0 ;
b0 i
b0 n
b0 '"
b1 :
b1 g
b1 k
b1 ("
b0 W
b0 P
b0 R
b1 S
1U
b0 C
b0 _
b0 @"
b0 F
b0 K
b0 ]
b1 2
b1 ""
b1 ."
b1 4"
b0 3
b0 #"
b0 0"
b0 7"
b1 @
b1 X
b1 f
b1 l
b0 A
b0 Y
b0 h
b0 o
b0 ?
b0 V
b0 d
b0 r
0<
b0 =
b0 Q
b0 `
b0 y
1$
#210000
0$
#220000
b110 7
b110 a
b110 x
b110 +"
16
b110 ~
b10111 !"
b100000 ;
b100000 i
b100000 n
b100000 '"
b1100010111 :
b1100010111 g
b1100010111 k
b1100010111 ("
b11111111110000110000001100010011 0
b11111111110000110000001100010011 /"
b11111111110000110000001100010011 3"
b11111111110000110000001100010011 :"
b11111111110000110000001100010011 (
b11111111110000110000001100010011 *
b11111111110000110000001100010011 +
b11111111110000110000001100010011 ;"
b100000 3
b100000 #"
b100000 0"
b100000 7"
b1100010111 2
b1100010111 ""
b1100010111 ."
b1100010111 4"
b100100 1
b100100 1"
b100100 6"
b100100 9"
b100100 '
b100100 )
b100100 /
b100100 8"
b100100 .
b100100 <"
b100100 >"
1$
#230000
0$
#240000
b100000 9
b100000 e
b100000 q
b100000 )"
b100000 -
b100000 |
b100000 C"
b11111111111111111111111111111100 8
b11111111111111111111111111111100 c
b11111111111111111111111111111100 t
b11111111111111111111111111111100 *"
b110 5
b110 ,"
b110 A"
1B
b110 D
b110 ^
b110 ?"
b100000 C
b100000 _
b100000 @"
b1010011000101001101001100011 0
b1010011000101001101001100011 /"
b1010011000101001101001100011 3"
b1010011000101001101001100011 :"
b1010011000101001101001100011 (
b1010011000101001101001100011 *
b1010011000101001101001100011 +
b1010011000101001101001100011 ;"
b1111111 %"
b11100 {
b111111111100 $"
b110 }
b10011 !"
b100100 ;
b100100 i
b100100 n
b100100 '"
b11111111110000110000001100010011 :
b11111111110000110000001100010011 g
b11111111110000110000001100010011 k
b11111111110000110000001100010011 ("
b110 W
b110 R
b10111 S
b101000 1
b101000 1"
b101000 6"
b101000 9"
b101000 '
b101000 )
b101000 /
b101000 8"
b101000 .
b101000 <"
b101000 >"
b11111111110000110000001100010011 2
b11111111110000110000001100010011 ""
b11111111110000110000001100010011 ."
b11111111110000110000001100010011 4"
b100100 3
b100100 #"
b100100 0"
b100100 7"
b1100010111 @
b1100010111 X
b1100010111 f
b1100010111 l
b100000 A
b100000 Y
b100000 h
b100000 o
1<
b110 =
b110 Q
b110 `
b110 y
1$
#250000
0$
#260000
b11100 9
b11100 e
b11100 q
b11100 )"
b11100 ,
b11100 z
b11100 D"
b11100 -
b11100 |
b11100 C"
b0 7
b0 a
b0 x
b0 +"
06
b11100 8
b11100 c
b11100 t
b11100 *"
b110 4
b110 -"
b110 B"
b101 5
b101 ,"
b101 A"
1M
0U
b11111111111111111111011111100110 W
b1111111 [
b11100 O
b111111111100 Z
b110 P
b10011 S
b11100 C
b11100 _
b11100 @"
b101 %"
b110 {
b10100110 $"
b101 }
b1 &"
b10100 ~
b1100011 !"
b101000 ;
b101000 i
b101000 n
b101000 '"
b1010011000101001101001100011 :
b1010011000101001101001100011 g
b1010011000101001101001100011 k
b1010011000101001101001100011 ("
b10000000000000110010011 0
b10000000000000110010011 /"
b10000000000000110010011 3"
b10000000000000110010011 :"
b10000000000000110010011 (
b10000000000000110010011 *
b10000000000000110010011 +
b10000000000000110010011 ;"
b11111111111111111111111111111100 >
b11111111111111111111111111111100 T
b11111111111111111111111111111100 b
b11111111111111111111111111111100 u
b100000 ?
b100000 V
b100000 d
b100000 r
b100100 A
b100100 Y
b100100 h
b100100 o
b11111111110000110000001100010011 @
b11111111110000110000001100010011 X
b11111111110000110000001100010011 f
b11111111110000110000001100010011 l
b101000 3
b101000 #"
b101000 0"
b101000 7"
b1010011000101001101001100011 2
b1010011000101001101001100011 ""
b1010011000101001101001100011 ."
b1010011000101001101001100011 4"
b101100 1
b101100 1"
b101100 6"
b101100 9"
b101100 '
b101100 )
b101100 /
b101100 8"
b101100 .
b101100 <"
b101100 >"
1$
#270000
0$
#280000
b0 9
b0 e
b0 q
b0 )"
b11011100 I
b11011100 L
b11011100 ="
b0 ,
b0 z
b0 D"
b0 -
b0 |
b0 C"
b11 7
b11 a
b11 x
b11 +"
16
b100 8
b100 c
b100 t
b100 *"
b0 4
b0 -"
b0 B"
b0 5
b0 ,"
b0 A"
b11011100 F
b11011100 K
b11011100 ]
b0 D
b0 ^
b0 ?"
b1000010011 0
b1000010011 /"
b1000010011 3"
b1000010011 :"
b1000010011 (
b1000010011 *
b1000010011 +
b1000010011 ;"
b0 %"
b100 {
b100 $"
b0 }
b0 &"
b11 ~
b10011 !"
b101100 ;
b101100 i
b101100 n
b101100 '"
b10000000000000110010011 :
b10000000000000110010011 g
b10000000000000110010011 k
b10000000000000110010011 ("
b10110100 W
b101 [
b110 O
b10100110 Z
b101 P
b1 \
b10100 R
b1100011 S
1U
0M
0B
b0 C
b0 _
b0 @"
b110000 1
b110000 1"
b110000 6"
b110000 9"
b110000 '
b110000 )
b110000 /
b110000 8"
b110000 .
b110000 <"
b110000 >"
b10000000000000110010011 2
b10000000000000110010011 ""
b10000000000000110010011 ."
b10000000000000110010011 4"
b101100 3
b101100 #"
b101100 0"
b101100 7"
b1010011000101001101001100011 @
b1010011000101001101001100011 X
b1010011000101001101001100011 f
b1010011000101001101001100011 l
b101000 A
b101000 Y
b101000 h
b101000 o
b11100 ?
b11100 V
b11100 d
b11100 r
b11100 >
b11100 T
b11100 b
b11100 u
0<
b0 =
b0 Q
b0 `
b0 y
1$
#290000
0$
#300000
1B
b11 D
b11 ^
b11 ?"
b100 C
b100 _
b100 @"
b0 I
b0 L
b0 ="
b100 7
b100 a
b100 x
b100 +"
b0 8
b0 c
b0 t
b0 *"
1N
1M
0U
b100000000010 W
b0 [
b100 O
b100 Z
b0 P
b0 \
b11 R
b10011 S
b0 F
b0 K
b0 ]
b0 {
b0 $"
b100 ~
b110000 ;
b110000 i
b110000 n
b110000 '"
b1000010011 :
b1000010011 g
b1000010011 k
b1000010011 ("
b1100010111 0
b1100010111 /"
b1100010111 3"
b1100010111 :"
b1100010111 (
b1100010111 *
b1100010111 +
b1100010111 ;"
b11 =
b11 Q
b11 `
b11 y
1<
b100 >
b100 T
b100 b
b100 u
b0 ?
b0 V
b0 d
b0 r
b101100 A
b101100 Y
b101100 h
b101100 o
b10000000000000110010011 @
b10000000000000110010011 X
b10000000000000110010011 f
b10000000000000110010011 l
b110000 3
b110000 #"
b110000 0"
b110000 7"
b1000010011 2
b1000010011 ""
b1000010011 ."
b1000010011 4"
b110100 1
b110100 1"
b110100 6"
b110100 9"
b110100 '
b110100 )
b110100 /
b110100 8"
b110100 .
b110100 <"
b110100 >"
1$
#310000
0$
#320000
b110 7
b110 a
b110 x
b110 +"
b100 D
b100 ^
b100 ?"
b1000000110000001100010011 0
b1000000110000001100010011 /"
b1000000110000001100010011 3"
b1000000110000001100010011 :"
b1000000110000001100010011 (
b1000000110000001100010011 *
b1000000110000001100010011 +
b1000000110000001100010011 ;"
b110 ~
b10111 !"
b110100 ;
b110100 i
b110100 n
b110100 '"
b1100010111 :
b1100010111 g
b1100010111 k
b1100010111 ("
b100 W
b0 O
b0 Z
b100 R
0N
0M
1U
b0 C
b0 _
b0 @"
b111000 1
b111000 1"
b111000 6"
b111000 9"
b111000 '
b111000 )
b111000 /
b111000 8"
b111000 .
b111000 <"
b111000 >"
b1100010111 2
b1100010111 ""
b1100010111 ."
b1100010111 4"
b110100 3
b110100 #"
b110100 0"
b110100 7"
b1000010011 @
b1000010011 X
b1000010011 f
b1000010011 l
b110000 A
b110000 Y
b110000 h
b110000 o
b0 >
b0 T
b0 b
b0 u
b100 =
b100 Q
b100 `
b100 y
1$
#330000
0$
#340000
b110100 9
b110100 e
b110100 q
b110100 )"
b110100 -
b110100 |
b110100 C"
b110 D
b110 ^
b110 ?"
b110100 C
b110100 _
b110100 @"
b10000 8
b10000 c
b10000 t
b10000 *"
b110 5
b110 ,"
b110 A"
b110 W
b110 R
b10111 S
b10000 {
b10000 $"
b110 }
b10011 !"
b111000 ;
b111000 i
b111000 n
b111000 '"
b1000000110000001100010011 :
b1000000110000001100010011 g
b1000000110000001100010011 k
b1000000110000001100010011 ("
b110000100111100111 0
b110000100111100111 /"
b110000100111100111 3"
b110000100111100111 :"
b110000100111100111 (
b110000100111100111 *
b110000100111100111 +
b110000100111100111 ;"
b110 =
b110 Q
b110 `
b110 y
b110100 A
b110100 Y
b110100 h
b110100 o
b1100010111 @
b1100010111 X
b1100010111 f
b1100010111 l
b111000 3
b111000 #"
b111000 0"
b111000 7"
b1000000110000001100010011 2
b1000000110000001100010011 ""
b1000000110000001100010011 ."
b1000000110000001100010011 4"
b111100 1
b111100 1"
b111100 6"
b111100 9"
b111100 '
b111100 )
b111100 /
b111100 8"
b111100 .
b111100 <"
b111100 >"
1$
#350000
0$
#360000
b10011 7
b10011 a
b10011 x
b10011 +"
b0 8
b0 c
b0 t
b0 *"
b1000100 9
b1000100 e
b1000100 q
b1000100 )"
b1000100 -
b1000100 |
b1000100 C"
b1000001100000001111001100011 0
b1000001100000001111001100011 /"
b1000001100000001111001100011 3"
b1000001100000001111001100011 :"
b1000001100000001111001100011 (
b1000001100000001111001100011 *
b1000001100000001111001100011 +
b1000001100000001111001100011 ;"
b0 {
b0 $"
b10011 ~
b1100111 !"
b111100 ;
b111100 i
b111100 n
b111100 '"
b110000100111100111 :
b110000100111100111 g
b110000100111100111 k
b110000100111100111 ("
b10000 O
b10000 Z
b110 P
b10011 S
0U
b1000100 C
b1000100 _
b1000100 @"
b1000000 1
b1000000 1"
b1000000 6"
b1000000 9"
b1000000 '
b1000000 )
b1000000 /
b1000000 8"
b1000000 .
b1000000 <"
b1000000 >"
b110000100111100111 2
b110000100111100111 ""
b110000100111100111 ."
b110000100111100111 4"
b111100 3
b111100 #"
b111100 0"
b111100 7"
b1000000110000001100010011 @
b1000000110000001100010011 X
b1000000110000001100010011 f
b1000000110000001100010011 l
b111000 A
b111000 Y
b111000 h
b111000 o
b110100 ?
b110100 V
b110100 d
b110100 r
b10000 >
b10000 T
b10000 b
b10000 u
1$
#370000
0$
