tb/gtk.vcd
$date
	Tue May 10 02:21:42 2022
$end
$version
	Icarus Verilog
$end
$timescale
	1ps
$end
$scope module tb $end
$var wire 1 ! x3 $end
$var wire 1 " x27 $end
$var wire 1 # x26 $end
$var reg 1 $ clk $end
$var reg 1 % rst $end
$var integer 32 & r [31:0] $end
$scope module rv_soc_ins $end
$var wire 1 $ clk $end
$var wire 1 % rst $end
$var wire 32 ' rv_core_inst_addr_o [31:0] $end
$var wire 32 ( rom_inst_o [31:0] $end
$scope module rom_ins $end
$var wire 32 ) inst_addr_i [31:0] $end
$var reg 32 * inst_o [31:0] $end
$upscope $end
$scope module rv_core_ins $end
$var wire 1 $ clk $end
$var wire 32 + inst_i [31:0] $end
$var wire 1 % rst $end
$var wire 32 , regs_reg2_rdata_o [31:0] $end
$var wire 32 - regs_reg1_rdata_o [31:0] $end
$var wire 32 . pc_reg_pc_o [31:0] $end
$var wire 32 / inst_addr_o [31:0] $end
$var wire 32 0 ifetch_inst_o [31:0] $end
$var wire 32 1 ifetch_inst_addr_o [31:0] $end
$var wire 32 2 if_id_inst_o [31:0] $end
$var wire 32 3 if_id_inst_addr_o [31:0] $end
$var wire 5 4 id_rs2_addr_o [4:0] $end
$var wire 5 5 id_rs1_addr_o [4:0] $end
$var wire 1 6 id_reg_wen $end
$var wire 5 7 id_rd_addr_o [4:0] $end
$var wire 32 8 id_op2_o [31:0] $end
$var wire 32 9 id_op1_o [31:0] $end
$var wire 32 : id_inst_o [31:0] $end
$var wire 32 ; id_inst_addr_o [31:0] $end
$var wire 1 < id_ex_reg_wen_o $end
$var wire 5 = id_ex_rd_addr_o [4:0] $end
$var wire 32 > id_ex_op2_o [31:0] $end
$var wire 32 ? id_ex_op1_o [31:0] $end
$var wire 32 @ id_ex_inst_o [31:0] $end
$var wire 32 A id_ex_inst_addr_o [31:0] $end
$var wire 1 B ex_reg_wen_o $end
$var wire 32 C ex_rd_data_o [31:0] $end
$var wire 5 D ex_rd_addr_o [4:0] $end
$var wire 1 E ex_jump_en_o $end
$var wire 32 F ex_jump_addr_o [31:0] $end
$var wire 1 G ex_hold_flag_o $end
$var wire 1 H ctrl_jump_en_o $end
$var wire 32 I ctrl_jump_addr_o [31:0] $end
$var wire 1 J ctrl_hold_flag_o $end
$scope module ctrl_ins $end
$var wire 1 % rst $end
$var wire 1 E jump_en_i $end
$var wire 32 K jump_addr_i [31:0] $end
$var wire 1 G hold_flag_i $end
$var reg 1 J hold_flag_o $end
$var reg 32 L jump_addr_o [31:0] $end
$var reg 1 H jump_en_o $end
$upscope $end
$scope module ex_ins $end
$var wire 5 M rs2 [4:0] $end
$var wire 5 N rs1 [4:0] $end
$var wire 1 < reg_wen_i $end
$var wire 5 O rd_addr_i [4:0] $end
$var wire 5 P rd [4:0] $end
$var wire 7 Q opcode [6:0] $end
$var wire 32 R op2_i [31:0] $end
$var wire 1 S op1_i_equal_op2_i $end
$var wire 32 T op1_i [31:0] $end
$var wire 32 U jump_imm [31:0] $end
$var wire 32 V inst_i [31:0] $end
$var wire 32 W inst_addr_i [31:0] $end
$var wire 12 X imm [11:0] $end
$var wire 7 Y funct7 [6:0] $end
$var wire 3 Z funct3 [2:0] $end
$var reg 1 G hold_flag_o $end
$var reg 32 [ jump_addr_o [31:0] $end
$var reg 1 E jump_en_o $end
$var reg 5 \ rd_addr_o [4:0] $end
$var reg 32 ] rd_data_o [31:0] $end
$var reg 1 B reg_wen_o $end
$upscope $end
$scope module id_ex_ins $end
$var wire 1 $ clk $end
$var wire 1 J hold_flag_i $end
$var wire 1 % rst $end
$var wire 1 < reg_wen_o $end
$var wire 1 6 reg_wen_i $end
$var wire 5 ^ rd_addr_o [4:0] $end
$var wire 5 _ rd_addr_i [4:0] $end
$var wire 32 ` op2_o [31:0] $end
$var wire 32 a op2_i [31:0] $end
$var wire 32 b op1_o [31:0] $end
$var wire 32 c op1_i [31:0] $end
$var wire 32 d inst_o [31:0] $end
$var wire 32 e inst_i [31:0] $end
$var wire 32 f inst_addr_o [31:0] $end
$var wire 32 g inst_addr_i [31:0] $end
$scope module dff1 $end
$var wire 1 $ clk $end
$var wire 1 J hold_flag_i $end
$var wire 1 % rst $end
$var wire 32 h set_data [31:0] $end
$var wire 32 i data_i [31:0] $end
$var reg 32 j data_o [31:0] $end
$upscope $end
$scope module dff2 $end
$var wire 1 $ clk $end
$var wire 1 J hold_flag_i $end
$var wire 1 % rst $end
$var wire 32 k set_data [31:0] $end
$var wire 32 l data_i [31:0] $end
$var reg 32 m data_o [31:0] $end
$upscope $end
$scope module dff3 $end
$var wire 1 $ clk $end
$var wire 1 J hold_flag_i $end
$var wire 1 % rst $end
$var wire 32 n set_data [31:0] $end
$var wire 32 o data_i [31:0] $end
$var reg 32 p data_o [31:0] $end
$upscope $end
$scope module dff4 $end
$var wire 1 $ clk $end
$var wire 1 J hold_flag_i $end
$var wire 1 % rst $end
$var wire 32 q set_data [31:0] $end
$var wire 32 r data_i [31:0] $end
$var reg 32 s data_o [31:0] $end
$upscope $end
$scope module dff5 $end
$var wire 1 $ clk $end
$var wire 1 J hold_flag_i $end
$var wire 1 % rst $end
$var wire 1 t set_data $end
$var wire 1 6 data_i $end
$var reg 1 < data_o $end
$upscope $end
$scope module dff6 $end
$var wire 1 $ clk $end
$var wire 1 J hold_flag_i $end
$var wire 1 % rst $end
$var wire 5 u set_data [4:0] $end
$var wire 5 v data_i [4:0] $end
$var reg 5 w data_o [4:0] $end
$upscope $end
$upscope $end
$scope module id_ins $end
$var wire 32 x rs2_data_i [31:0] $end
$var wire 5 y rs2 [4:0] $end
$var wire 32 z rs1_data_i [31:0] $end
$var wire 5 { rs1 [4:0] $end
$var wire 5 | rd [4:0] $end
$var wire 7 } opcode [6:0] $end
$var wire 32 ~ inst_i [31:0] $end
$var wire 32 !" inst_addr_i [31:0] $end
$var wire 12 "" imm [11:0] $end
$var wire 7 #" funct7 [6:0] $end
$var wire 3 $" funct3 [2:0] $end
$var reg 32 %" inst_addr_o [31:0] $end
$var reg 32 &" inst_o [31:0] $end
$var reg 32 '" op1_o [31:0] $end
$var reg 32 (" op2_o [31:0] $end
$var reg 5 )" rd_addr_o [4:0] $end
$var reg 1 6 reg_wen $end
$var reg 5 *" rs1_addr_o [4:0] $end
$var reg 5 +" rs2_addr_o [4:0] $end
$upscope $end
$scope module if_id_ins $end
$var wire 1 $ clk $end
$var wire 1 J hold_flag_i $end
$var wire 1 % rst $end
$var wire 32 ," inst_o [31:0] $end
$var wire 32 -" inst_i [31:0] $end
$var wire 32 ." inst_addr_o [31:0] $end
$var wire 32 /" inst_addr_i [31:0] $end
$scope module dff1 $end
$var wire 1 $ clk $end
$var wire 1 J hold_flag_i $end
$var wire 1 % rst $end
$var wire 32 0" set_data [31:0] $end
$var wire 32 1" data_i [31:0] $end
$var reg 32 2" data_o [31:0] $end
$upscope $end
$scope module dff2 $end
$var wire 1 $ clk $end
$var wire 1 J hold_flag_i $end
$var wire 1 % rst $end
$var wire 32 3" set_data [31:0] $end
$var wire 32 4" data_i [31:0] $end
$var reg 32 5" data_o [31:0] $end
$upscope $end
$upscope $end
$scope module ifetch_ins $end
$var wire 32 6" if2rom_addr_o [31:0] $end
$var wire 32 7" inst_addr_o [31:0] $end
$var wire 32 8" inst_o [31:0] $end
$var wire 32 9" rom_inst_i [31:0] $end
$var wire 32 :" pc_addr_i [31:0] $end
$upscope $end
$scope module pc_reg_ins $end
$var wire 1 $ clk $end
$var wire 32 ;" jump_addr_i [31:0] $end
$var wire 1 H jump_en_i $end
$var wire 1 % rst $end
$var reg 32 <" pc_o [31:0] $end
$upscope $end
$scope module regs_ins $end
$var wire 1 $ clk $end
$var wire 5 =" rd_addr_i [4:0] $end
$var wire 32 >" rd_data_i [31:0] $end
$var wire 5 ?" reg1_raddr_i [4:0] $end
$var wire 5 @" reg2_raddr_i [4:0] $end
$var wire 1 B reg_wen $end
$var wire 1 % rst $end
$var reg 32 A" reg1_rdata_o [31:0] $end
$var reg 32 B" reg2_rdata_o [31:0] $end
$var integer 32 C" i [31:0] $end
$upscope $end
$upscope $end
$upscope $end
$upscope $end
$enddefinitions $end
#0
$dumpvars
b100000 C"
b0 B"
b0 A"
b0 @"
b0 ?"
b0 >"
b0 ="
b0 <"
b0 ;"
b0 :"
b110100010011 9"
b110100010011 8"
b0 7"
b0 6"
b0 5"
b0 4"
b0 3"
b1 2"
b110100010011 1"
b1 0"
b0 /"
b0 ."
b110100010011 -"
b1 ,"
b0 +"
b0 *"
b0 )"
b0 ("
b0 '"
b1 &"
b0 %"
b0 $"
b0 #"
b0 ""
b0 !"
b1 ~
b1 }
b0 |
b0 {
b0 z
b0 y
b0 x
b0 w
b0 v
b0 u
0t
b0 s
b0 r
b0 q
b0 p
b0 o
b0 n
b0 m
b0 l
b0 k
b1 j
b1 i
b1 h
b0 g
b0 f
b1 e
b1 d
b0 c
b0 b
b0 a
b0 `
b0 _
b0 ^
b0 ]
b0 \
b0 [
b0 Z
b0 Y
b0 X
b0 W
b1 V
b0 U
b0 T
1S
b0 R
b1 Q
b0 P
b0 O
b0 N
b0 M
b0 L
b0 K
0J
b0 I
0H
0G
b0 F
0E
b0 D
b0 C
0B
b0 A
b1 @
b0 ?
b0 >
b0 =
0<
b0 ;
b1 :
b0 9
b0 8
b0 7
06
b0 5
b0 4
b0 3
b1 2
b0 1
b110100010011 0
b0 /
b0 .
b0 -
b0 ,
b110100010011 +
b110100010011 *
b0 )
b110100010011 (
b0 '
bx &
0%
1$
0#
0"
0!
$end
#10000
0$
#20000
b100000 C"
1$
#30000
0$
1%
#40000
b11010 7
b11010 _
b11010 v
b11010 )"
16
b110110010011 0
b110110010011 -"
b110110010011 1"
b110110010011 8"
b110110010011 (
b110110010011 *
b110110010011 +
b110110010011 9"
b11010 |
b10011 }
b110100010011 :
b110100010011 e
b110100010011 i
b110100010011 &"
b100 1
b100 /"
b100 4"
b100 7"
b100 '
b100 )
b100 /
b100 6"
b100 .
b100 :"
b100 <"
b110100010011 2
b110100010011 ~
b110100010011 ,"
b110100010011 2"
1$
#50000
0$
#60000
1B
b11010 D
b11010 \
b11010 ="
b11011 7
b11011 _
b11011 v
b11011 )"
b11010 U
b11010 P
b10011 Q
b11011 |
b100 ;
b100 g
b100 l
b100 %"
b110110010011 :
b110110010011 e
b110110010011 i
b110110010011 &"
b10010011 0
b10010011 -"
b10010011 1"
b10010011 8"
b10010011 (
b10010011 *
b10010011 +
b10010011 9"
b11010 =
b11010 O
b11010 ^
b11010 w
1<
b110100010011 @
b110100010011 V
b110100010011 d
b110100010011 j
b100 3
b100 !"
b100 ."
b100 5"
b110110010011 2
b110110010011 ~
b110110010011 ,"
b110110010011 2"
b1000 1
b1000 /"
b1000 4"
b1000 7"
b1000 '
b1000 )
b1000 /
b1000 6"
b1000 .
b1000 :"
b1000 <"
1$
#70000
0$
#80000
b1 7
b1 _
b1 v
b1 )"
b11011 D
b11011 \
b11011 ="
b100010011 0
b100010011 -"
b100010011 1"
b100010011 8"
b100010011 (
b100010011 *
b100010011 +
b100010011 9"
b1 |
b1000 ;
b1000 g
b1000 l
b1000 %"
b10010011 :
b10010011 e
b10010011 i
b10010011 &"
b100000011010 U
b11011 P
b1100 1
b1100 /"
b1100 4"
b1100 7"
b1100 '
b1100 )
b1100 /
b1100 6"
b1100 .
b1100 :"
b1100 <"
b10010011 2
b10010011 ~
b10010011 ,"
b10010011 2"
b1000 3
b1000 !"
b1000 ."
b1000 5"
b110110010011 @
b110110010011 V
b110110010011 d
b110110010011 j
b100 A
b100 W
b100 f
b100 m
b11011 =
b11011 O
b11011 ^
b11011 w
1$
#90000
0$
#100000
b1 D
b1 \
b1 ="
b10 7
b10 _
b10 v
b10 )"
b100000000000 U
b1 P
b10 |
b1100 ;
b1100 g
b1100 l
b1100 %"
b100010011 :
b100010011 e
b100010011 i
b100010011 &"
b1000001000111100110011 0
b1000001000111100110011 -"
b1000001000111100110011 1"
b1000001000111100110011 8"
b1000001000111100110011 (
b1000001000111100110011 *
b1000001000111100110011 +
b1000001000111100110011 9"
b1 =
b1 O
b1 ^
b1 w
b1000 A
b1000 W
b1000 f
b1000 m
b10010011 @
b10010011 V
b10010011 d
b10010011 j
b1100 3
b1100 !"
b1100 ."
b1100 5"
b100010011 2
b100010011 ~
b100010011 ,"
b100010011 2"
b10000 1
b10000 /"
b10000 4"
b10000 7"
b10000 '
b10000 )
b10000 /
b10000 6"
b10000 .
b10000 :"
b10000 <"
1$
#110000
0$
#120000
b11110 7
b11110 _
b11110 v
b11110 )"
b10 4
b10 +"
b10 @"
b1 5
b1 *"
b1 ?"
b10 D
b10 \
b10 ="
b111010010011 0
b111010010011 -"
b111010010011 1"
b111010010011 8"
b111010010011 (
b111010010011 *
b111010010011 +
b111010010011 9"
b10 y
b10 ""
b1 {
b11110 |
b110011 }
b10000 ;
b10000 g
b10000 l
b10000 %"
b1000001000111100110011 :
b1000001000111100110011 e
b1000001000111100110011 i
b1000001000111100110011 &"
b10 U
b10 P
b10100 1
b10100 /"
b10100 4"
b10100 7"
b10100 '
b10100 )
b10100 /
b10100 6"
b10100 .
b10100 :"
b10100 <"
b1000001000111100110011 2
b1000001000111100110011 ~
b1000001000111100110011 ,"
b1000001000111100110011 2"
b10000 3
b10000 !"
b10000 ."
b10000 5"
b100010011 @
b100010011 V
b100010011 d
b100010011 j
b1100 A
b1100 W
b1100 f
b1100 m
b10 =
b10 O
b10 ^
b10 w
1$
#130000
0$
#140000
b11110 D
b11110 \
b11110 ="
b11101 7
b11101 _
b11101 v
b11101 )"
b0 4
b0 +"
b0 @"
b0 5
b0 *"
b0 ?"
b11110 U
b10 M
b10 X
b1 N
b11110 P
b110011 Q
b0 y
b0 ""
b0 {
b11101 |
b10011 }
b10100 ;
b10100 g
b10100 l
b10100 %"
b111010010011 :
b111010010011 e
b111010010011 i
b111010010011 &"
b1000000000000110010011 0
b1000000000000110010011 -"
b1000000000000110010011 1"
b1000000000000110010011 8"
b1000000000000110010011 (
b1000000000000110010011 *
b1000000000000110010011 +
b1000000000000110010011 9"
b11110 =
b11110 O
b11110 ^
b11110 w
b10000 A
b10000 W
b10000 f
b10000 m
b1000001000111100110011 @
b1000001000111100110011 V
b1000001000111100110011 d
b1000001000111100110011 j
b10100 3
b10100 !"
b10100 ."
b10100 5"
b111010010011 2
b111010010011 ~
b111010010011 ,"
b111010010011 2"
b11000 1
b11000 /"
b11000 4"
b11000 7"
b11000 '
b11000 )
b11000 /
b11000 6"
b11000 .
b11000 :"
b11000 <"
1$
#150000
0$
#160000
b11 7
b11 _
b11 v
b11 )"
b10 8
b10 a
b10 r
b10 ("
b11101 D
b11101 \
b11101 ="
b1001101110111110001011001100011 0
b1001101110111110001011001100011 -"
b1001101110111110001011001100011 1"
b1001101110111110001011001100011 8"
b1001101110111110001011001100011 (
b1001101110111110001011001100011 *
b1001101110111110001011001100011 +
b1001101110111110001011001100011 9"
b10 y
b10 ""
b11 |
b11000 ;
b11000 g
b11000 l
b11000 %"
b1000000000000110010011 :
b1000000000000110010011 e
b1000000000000110010011 i
b1000000000000110010011 &"
b100000011100 U
b0 M
b0 X
b0 N
b11101 P
b10011 Q
b11100 1
b11100 /"
b11100 4"
b11100 7"
b11100 '
b11100 )
b11100 /
b11100 6"
b11100 .
b11100 :"
b11100 <"
b1000000000000110010011 2
b1000000000000110010011 ~
b1000000000000110010011 ,"
b1000000000000110010011 2"
b11000 3
b11000 !"
b11000 ."
b11000 5"
b111010010011 @
b111010010011 V
b111010010011 d
b111010010011 j
b10100 A
b10100 W
b10100 f
b10100 m
b11101 =
b11101 O
b11101 ^
b11101 w
1$
#170000
0$
#180000
b11 D
b11 \
b11 ="
b0 ,
b0 x
b0 B"
b0 7
b0 _
b0 v
b0 )"
06
b0 8
b0 a
b0 r
b0 ("
b11101 4
b11101 +"
b11101 @"
b11110 5
b11110 *"
b11110 ?"
0S
b100000000010 U
b10 M
b10 X
b11 P
b10 C
b10 ]
b10 >"
b100110 #"
b11101 y
b10011011101 ""
b11110 {
b1 $"
b1100 |
b1100011 }
b11100 ;
b11100 g
b11100 l
b11100 %"
b1001101110111110001011001100011 :
b1001101110111110001011001100011 e
b1001101110111110001011001100011 i
b1001101110111110001011001100011 &"
b100000000000010010011 0
b100000000000010010011 -"
b100000000000010010011 1"
b100000000000010010011 8"
b100000000000010010011 (
b100000000000010010011 *
b100000000000010010011 +
b100000000000010010011 9"
b11 =
b11 O
b11 ^
b11 w
b10 >
b10 R
b10 `
b10 s
b11000 A
b11000 W
b11000 f
b11000 m
b1000000000000110010011 @
b1000000000000110010011 V
b1000000000000110010011 d
b1000000000000110010011 j
b11100 3
b11100 !"
b11100 ."
b11100 5"
b1001101110111110001011001100011 2
b1001101110111110001011001100011 ~
b1001101110111110001011001100011 ,"
b1001101110111110001011001100011 2"
b100000 1
b100000 /"
b100000 4"
b100000 7"
b100000 '
b100000 )
b100000 /
b100000 6"
b100000 .
b100000 :"
b100000 <"
1$
#190000
0$
#200000
b10011101000 I
b10011101000 L
b10011101000 ;"
b1 7
b1 _
b1 v
b1 )"
16
b1 8
b1 a
b1 r
b1 ("
b0 4
b0 +"
b0 @"
b0 5
b0 *"
b0 ?"
b10011101000 F
b10011101000 K
b10011101000 [
b0 D
b0 \
b0 ="
b100000000000100010011 0
b100000000000100010011 -"
b100000000000100010011 1"
b100000000000100010011 8"
b100000000000100010011 (
b100000000000100010011 *
b100000000000100010011 +
b100000000000100010011 9"
b0 #"
b1 y
b1 ""
b0 {
b0 $"
b1 |
b10011 }
b100000 ;
b100000 g
b100000 l
b100000 %"
b100000000000010010011 :
b100000000000010010011 e
b100000000000010010011 i
b100000000000010010011 &"
b10011001100 U
b100110 Y
b11101 M
b10011011101 X
b11110 N
b1 Z
b1100 P
b1100011 Q
1S
0B
b0 C
b0 ]
b0 >"
b100100 1
b100100 /"
b100100 4"
b100100 7"
b100100 '
b100100 )
b100100 /
b100100 6"
b100100 .
b100100 :"
b100100 <"
b100000000000010010011 2
b100000000000010010011 ~
b100000000000010010011 ,"
b100000000000010010011 2"
b100000 3
b100000 !"
b100000 ."
b100000 5"
b1001101110111110001011001100011 @
b1001101110111110001011001100011 V
b1001101110111110001011001100011 d
b1001101110111110001011001100011 j
b11100 A
b11100 W
b11100 f
b11100 m
b0 >
b0 R
b0 `
b0 s
0<
b0 =
b0 O
b0 ^
b0 w
1$
#210000
0$
#220000
1B
b1 D
b1 \
b1 ="
b1 C
b1 ]
b1 >"
b0 I
b0 L
b0 ;"
b10 7
b10 _
b10 v
b10 )"
0S
b100000000000 U
b0 Y
b1 M
b1 X
b0 N
b0 Z
b1 P
b10011 Q
b0 F
b0 K
b0 [
b10 |
b100100 ;
b100100 g
b100100 l
b100100 %"
b100000000000100010011 :
b100000000000100010011 e
b100000000000100010011 i
b100000000000100010011 &"
b1000001000111100110011 0
b1000001000111100110011 -"
b1000001000111100110011 1"
b1000001000111100110011 8"
b1000001000111100110011 (
b1000001000111100110011 *
b1000001000111100110011 +
b1000001000111100110011 9"
b1 =
b1 O
b1 ^
b1 w
1<
b1 >
b1 R
b1 `
b1 s
b100000 A
b100000 W
b100000 f
b100000 m
b100000000000010010011 @
b100000000000010010011 V
b100000000000010010011 d
b100000000000010010011 j
b100100 3
b100100 !"
b100100 ."
b100100 5"
b100000000000100010011 2
b100000000000100010011 ~
b100000000000100010011 ,"
b100000000000100010011 2"
b101000 1
b101000 /"
b101000 4"
b101000 7"
b101000 '
b101000 )
b101000 /
b101000 6"
b101000 .
b101000 :"
b101000 <"
1$
#230000
0$
#240000
b1 9
b1 c
b1 o
b1 '"
b1 ,
b1 x
b1 B"
b1 -
b1 z
b1 A"
b11110 7
b11110 _
b11110 v
b11110 )"
b1 8
b1 a
b1 r
b1 ("
b10 4
b10 +"
b10 @"
b1 5
b1 *"
b1 ?"
b10 D
b10 \
b10 ="
b1000000000111010010011 0
b1000000000111010010011 -"
b1000000000111010010011 1"
b1000000000111010010011 8"
b1000000000111010010011 (
b1000000000111010010011 *
b1000000000111010010011 +
b1000000000111010010011 9"
b10 y
b10 ""
b1 {
b11110 |
b110011 }
b101000 ;
b101000 g
b101000 l
b101000 %"
b1000001000111100110011 :
b1000001000111100110011 e
b1000001000111100110011 i
b1000001000111100110011 &"
b10 U
b10 P
b101100 1
b101100 /"
b101100 4"
b101100 7"
b101100 '
b101100 )
b101100 /
b101100 6"
b101100 .
b101100 :"
b101100 <"
b1000001000111100110011 2
b1000001000111100110011 ~
b1000001000111100110011 ,"
b1000001000111100110011 2"
b101000 3
b101000 !"
b101000 ."
b101000 5"
b100000000000100010011 @
b100000000000100010011 V
b100000000000100010011 d
b100000000000100010011 j
b100100 A
b100100 W
b100100 f
b100100 m
b10 =
b10 O
b10 ^
b10 w
1$
#250000
0$
#260000
b0 9
b0 c
b0 o
b0 '"
b11110 D
b11110 \
b11110 ="
b0 ,
b0 x
b0 B"
b0 -
b0 z
b0 A"
b11101 7
b11101 _
b11101 v
b11101 )"
b10 8
b10 a
b10 r
b10 ("
b0 4
b0 +"
b0 @"
b0 5
b0 *"
b0 ?"
1S
b11110 U
b10 M
b10 X
b1 N
b11110 P
b110011 Q
b10 C
b10 ]
b10 >"
b0 {
b11101 |
b10011 }
b101100 ;
b101100 g
b101100 l
b101100 %"
b1000000000111010010011 :
b1000000000111010010011 e
b1000000000111010010011 i
b1000000000111010010011 &"
b1100000000000110010011 0
b1100000000000110010011 -"
b1100000000000110010011 1"
b1100000000000110010011 8"
b1100000000000110010011 (
b1100000000000110010011 *
b1100000000000110010011 +
b1100000000000110010011 9"
b11110 =
b11110 O
b11110 ^
b11110 w
b1 ?
b1 T
b1 b
b1 p
b101000 A
b101000 W
b101000 f
b101000 m
b1000001000111100110011 @
b1000001000111100110011 V
b1000001000111100110011 d
b1000001000111100110011 j
b101100 3
b101100 !"
b101100 ."
b101100 5"
b1000000000111010010011 2
b1000000000111010010011 ~
b1000000000111010010011 ,"
b1000000000111010010011 2"
b110000 1
b110000 /"
b110000 4"
b110000 7"
b110000 '
b110000 )
b110000 /
b110000 6"
b110000 .
b110000 :"
b110000 <"
1$
#270000
0$
#280000
b11 7
b11 _
b11 v
b11 )"
b11 8
b11 a
b11 r
b11 ("
b11101 D
b11101 \
b11101 ="
b1001011110111110001101001100011 0
b1001011110111110001101001100011 -"
b1001011110111110001101001100011 1"
b1001011110111110001101001100011 8"
b1001011110111110001101001100011 (
b1001011110111110001101001100011 *
b1001011110111110001101001100011 +
b1001011110111110001101001100011 9"
b11 y
b11 ""
b11 |
b110000 ;
b110000 g
b110000 l
b110000 %"
b1100000000000110010011 :
b1100000000000110010011 e
b1100000000000110010011 i
b1100000000000110010011 &"
b100000011100 U
b0 N
b11101 P
b10011 Q
0S
b110100 1
b110100 /"
b110100 4"
b110100 7"
b110100 '
b110100 )
b110100 /
b110100 6"
b110100 .
b110100 :"
b110100 <"
b1100000000000110010011 2
b1100000000000110010011 ~
b1100000000000110010011 ,"
b1100000000000110010011 2"
b110000 3
b110000 !"
b110000 ."
b110000 5"
b1000000000111010010011 @
b1000000000111010010011 V
b1000000000111010010011 d
b1000000000111010010011 j
b101100 A
b101100 W
b101100 f
b101100 m
b0 ?
b0 T
b0 b
b0 p
b10 >
b10 R
b10 `
b10 s
b11101 =
b11101 O
b11101 ^
b11101 w
1$
#290000
0$
#300000
b10 9
b10 c
b10 o
b10 '"
b11 D
b11 \
b11 ="
b10 ,
b10 x
b10 B"
b10 -
b10 z
b10 A"
b0 7
b0 _
b0 v
b0 )"
06
b10 8
b10 a
b10 r
b10 ("
b11101 4
b11101 +"
b11101 @"
b11110 5
b11110 *"
b11110 ?"
b100000000010 U
b11 M
b11 X
b11 P
b11 C
b11 ]
b11 >"
b100101 #"
b11101 y
b10010111101 ""
b11110 {
b1 $"
b10100 |
b1100011 }
b110100 ;
b110100 g
b110100 l
b110100 %"
b1001011110111110001101001100011 :
b1001011110111110001101001100011 e
b1001011110111110001101001100011 i
b1001011110111110001101001100011 &"
b1100000000000010010011 0
b1100000000000010010011 -"
b1100000000000010010011 1"
b1100000000000010010011 8"
b1100000000000010010011 (
b1100000000000010010011 *
b1100000000000010010011 +
b1100000000000010010011 9"
b11 =
b11 O
b11 ^
b11 w
b11 >
b11 R
b11 `
b11 s
b110000 A
b110000 W
b110000 f
b110000 m
b1100000000000110010011 @
b1100000000000110010011 V
b1100000000000110010011 d
b1100000000000110010011 j
b110100 3
b110100 !"
b110100 ."
b110100 5"
b1001011110111110001101001100011 2
b1001011110111110001101001100011 ~
b1001011110111110001101001100011 ,"
b1001011110111110001101001100011 2"
b111000 1
b111000 /"
b111000 4"
b111000 7"
b111000 '
b111000 )
b111000 /
b111000 6"
b111000 .
b111000 :"
b111000 <"
1$
#310000
0$
#320000
b0 9
b0 c
b0 o
b0 '"
b10011101000 I
b10011101000 L
b10011101000 ;"
b0 ,
b0 x
b0 B"
b0 -
b0 z
b0 A"
b1 7
b1 _
b1 v
b1 )"
16
b11 8
b11 a
b11 r
b11 ("
b0 4
b0 +"
b0 @"
b0 5
b0 *"
b0 ?"
b10011101000 F
b10011101000 K
b10011101000 [
b0 D
b0 \
b0 ="
b11100000000000100010011 0
b11100000000000100010011 -"
b11100000000000100010011 1"
b11100000000000100010011 8"
b11100000000000100010011 (
b11100000000000100010011 *
b11100000000000100010011 +
b11100000000000100010011 9"
b0 #"
b11 y
b11 ""
b0 {
b0 $"
b1 |
b10011 }
b111000 ;
b111000 g
b111000 l
b111000 %"
b1100000000000010010011 :
b1100000000000010010011 e
b1100000000000010010011 i
b1100000000000010010011 &"
b10010110100 U
b100101 Y
b11101 M
b10010111101 X
b11110 N
b1 Z
b10100 P
b1100011 Q
1S
0B
b0 C
b0 ]
b0 >"
b111100 1
b111100 /"
b111100 4"
b111100 7"
b111100 '
b111100 )
b111100 /
b111100 6"
b111100 .
b111100 :"
b111100 <"
b1100000000000010010011 2
b1100000000000010010011 ~
b1100000000000010010011 ,"
b1100000000000010010011 2"
b111000 3
b111000 !"
b111000 ."
b111000 5"
b1001011110111110001101001100011 @
b1001011110111110001101001100011 V
b1001011110111110001101001100011 d
b1001011110111110001101001100011 j
b110100 A
b110100 W
b110100 f
b110100 m
b10 ?
b10 T
b10 b
b10 p
b10 >
b10 R
b10 `
b10 s
0<
b0 =
b0 O
b0 ^
b0 w
1!
1$
#330000
0$
#340000
1B
b1 D
b1 \
b1 ="
b11 C
b11 ]
b11 >"
b0 I
b0 L
b0 ;"
b10 7
b10 _
b10 v
b10 )"
b111 8
b111 a
b111 r
b111 ("
0S
b100000000000 U
b0 Y
b11 M
b11 X
b0 N
b0 Z
b1 P
b10011 Q
b0 F
b0 K
b0 [
b111 y
b111 ""
b10 |
b111100 ;
b111100 g
b111100 l
b111100 %"
b11100000000000100010011 :
b11100000000000100010011 e
b11100000000000100010011 i
b11100000000000100010011 &"
b1000001000111100110011 0
b1000001000111100110011 -"
b1000001000111100110011 1"
b1000001000111100110011 8"
b1000001000111100110011 (
b1000001000111100110011 *
b1000001000111100110011 +
b1000001000111100110011 9"
b1 =
b1 O
b1 ^
b1 w
1<
b11 >
b11 R
b11 `
b11 s
b0 ?
b0 T
b0 b
b0 p
b111000 A
b111000 W
b111000 f
b111000 m
b1100000000000010010011 @
b1100000000000010010011 V
b1100000000000010010011 d
b1100000000000010010011 j
b111100 3
b111100 !"
b111100 ."
b111100 5"
b11100000000000100010011 2
b11100000000000100010011 ~
b11100000000000100010011 ,"
b11100000000000100010011 2"
b1000000 1
b1000000 /"
b1000000 4"
b1000000 7"
b1000000 '
b1000000 )
b1000000 /
b1000000 6"
b1000000 .
b1000000 :"
b1000000 <"
1$
#350000
0$
#360000
b11 9
b11 c
b11 o
b11 '"
b111 ,
b111 x
b111 B"
b11 -
b11 z
b11 A"
b11110 7
b11110 _
b11110 v
b11110 )"
b111 8
b111 a
b111 r
b111 ("
b10 4
b10 +"
b10 @"
b1 5
b1 *"
b1 ?"
b10 D
b10 \
b10 ="
b101000000000111010010011 0
b101000000000111010010011 -"
b101000000000111010010011 1"
b101000000000111010010011 8"
b101000000000111010010011 (
b101000000000111010010011 *
b101000000000111010010011 +
b101000000000111010010011 9"
b10 y
b10 ""
b1 {
b11110 |
b110011 }
b1000000 ;
b1000000 g
b1000000 l
b1000000 %"
b1000001000111100110011 :
b1000001000111100110011 e
b1000001000111100110011 i
b1000001000111100110011 &"
b10 U
b111 M
b111 X
b10 P
b111 C
b111 ]
b111 >"
b1000100 1
b1000100 /"
b1000100 4"
b1000100 7"
b1000100 '
b1000100 )
b1000100 /
b1000100 6"
b1000100 .
b1000100 :"
b1000100 <"
b1000001000111100110011 2
b1000001000111100110011 ~
b1000001000111100110011 ,"
b1000001000111100110011 2"
b1000000 3
b1000000 !"
b1000000 ."
b1000000 5"
b11100000000000100010011 @
b11100000000000100010011 V
b11100000000000100010011 d
b11100000000000100010011 j
b111100 A
b111100 W
b111100 f
b111100 m
b111 >
b111 R
b111 `
b111 s
b10 =
b10 O
b10 ^
b10 w
1$
#370000
0$
