tb/gtk.vcd
$date
	Sun May  8 22:53:43 2022
$end
$version
	Icarus Verilog
$end
$timescale
	1ps
$end
$scope module tb $end
$var reg 1 ! clk $end
$var reg 1 " rst $end
$scope module rv_soc_ins $end
$var wire 1 ! clk $end
$var wire 1 " rst $end
$var wire 32 # rv_core_inst_addr_o [31:0] $end
$var wire 32 $ rom_inst_o [31:0] $end
$scope module rom_ins $end
$var wire 32 % inst_addr_i [31:0] $end
$var reg 32 & inst_o [31:0] $end
$upscope $end
$scope module rv_core_ins $end
$var wire 1 ! clk $end
$var wire 1 ' ctrl_hold_flag_i $end
$var wire 32 ( inst_i [31:0] $end
$var wire 1 " rst $end
$var wire 32 ) regs_reg2_rdata_o [31:0] $end
$var wire 32 * regs_reg1_rdata_o [31:0] $end
$var wire 32 + pc_reg_pc_o [31:0] $end
$var wire 32 , inst_addr_o [31:0] $end
$var wire 32 - ifetch_inst_o [31:0] $end
$var wire 32 . ifetch_inst_addr_o [31:0] $end
$var wire 32 / if_id_inst_o [31:0] $end
$var wire 32 0 if_id_inst_addr_o [31:0] $end
$var wire 5 1 id_rs2_addr_o [4:0] $end
$var wire 5 2 id_rs1_addr_o [4:0] $end
$var wire 1 3 id_reg_wen $end
$var wire 5 4 id_rd_addr_o [4:0] $end
$var wire 32 5 id_op2_o [31:0] $end
$var wire 32 6 id_op1_o [31:0] $end
$var wire 32 7 id_inst_o [31:0] $end
$var wire 32 8 id_inst_addr_o [31:0] $end
$var wire 1 9 id_ex_reg_wen_o $end
$var wire 5 : id_ex_rd_addr_o [4:0] $end
$var wire 32 ; id_ex_op2_o [31:0] $end
$var wire 32 < id_ex_op1_o [31:0] $end
$var wire 32 = id_ex_inst_o [31:0] $end
$var wire 32 > id_ex_inst_addr_o [31:0] $end
$var wire 1 ? ex_reg_wen_o $end
$var wire 32 @ ex_rd_data_o [31:0] $end
$var wire 5 A ex_rd_addr_o [4:0] $end
$var wire 1 B ex_jump_en_o $end
$var wire 32 C ex_jump_addr_o [31:0] $end
$var wire 1 D ex_hold_flag_o $end
$var wire 1 E ctrl_jump_en_o $end
$var wire 32 F ctrl_jump_addr_o [31:0] $end
$var wire 1 G ctrl_hold_flag_o $end
$scope module ctrl_ins $end
$var wire 1 " rst $end
$var wire 1 B jump_en_i $end
$var wire 32 H jump_addr_i [31:0] $end
$var wire 1 D hold_flag_i $end
$var reg 1 G hold_flag_o $end
$var reg 32 I jump_addr_o [31:0] $end
$var reg 1 E jump_en_o $end
$upscope $end
$scope module ex_ins $end
$var wire 5 J rs2 [4:0] $end
$var wire 5 K rs1 [4:0] $end
$var wire 1 9 reg_wen_i $end
$var wire 5 L rd_addr_i [4:0] $end
$var wire 5 M rd [4:0] $end
$var wire 7 N opcode [6:0] $end
$var wire 32 O op2_i [31:0] $end
$var wire 1 P op1_i_equal_op2_i $end
$var wire 32 Q op1_i [31:0] $end
$var wire 32 R jump_imm [31:0] $end
$var wire 32 S inst_i [31:0] $end
$var wire 32 T inst_addr_i [31:0] $end
$var wire 12 U imm [11:0] $end
$var wire 7 V funct7 [6:0] $end
$var wire 3 W funct3 [2:0] $end
$var reg 1 D hold_flag_o $end
$var reg 32 X jump_addr_o [31:0] $end
$var reg 1 B jump_en_o $end
$var reg 5 Y rd_addr_o [4:0] $end
$var reg 32 Z rd_data_o [31:0] $end
$var reg 1 ? reg_wen_o $end
$upscope $end
$scope module id_ex_ins $end
$var wire 1 ! clk $end
$var wire 1 ' hold_flag_i $end
$var wire 1 " rst $end
$var wire 1 9 reg_wen_o $end
$var wire 1 3 reg_wen_i $end
$var wire 5 [ rd_addr_o [4:0] $end
$var wire 5 \ rd_addr_i [4:0] $end
$var wire 32 ] op2_o [31:0] $end
$var wire 32 ^ op2_i [31:0] $end
$var wire 32 _ op1_o [31:0] $end
$var wire 32 ` op1_i [31:0] $end
$var wire 32 a inst_o [31:0] $end
$var wire 32 b inst_i [31:0] $end
$var wire 32 c inst_addr_o [31:0] $end
$var wire 32 d inst_addr_i [31:0] $end
$scope module dff1 $end
$var wire 1 ! clk $end
$var wire 1 ' hold_flag_i $end
$var wire 1 " rst $end
$var wire 32 e set_data [31:0] $end
$var wire 32 f data_i [31:0] $end
$var reg 32 g data_o [31:0] $end
$upscope $end
$scope module dff2 $end
$var wire 1 ! clk $end
$var wire 1 ' hold_flag_i $end
$var wire 1 " rst $end
$var wire 32 h set_data [31:0] $end
$var wire 32 i data_i [31:0] $end
$var reg 32 j data_o [31:0] $end
$upscope $end
$scope module dff3 $end
$var wire 1 ! clk $end
$var wire 1 ' hold_flag_i $end
$var wire 1 " rst $end
$var wire 32 k set_data [31:0] $end
$var wire 32 l data_i [31:0] $end
$var reg 32 m data_o [31:0] $end
$upscope $end
$scope module dff4 $end
$var wire 1 ! clk $end
$var wire 1 ' hold_flag_i $end
$var wire 1 " rst $end
$var wire 32 n set_data [31:0] $end
$var wire 32 o data_i [31:0] $end
$var reg 32 p data_o [31:0] $end
$upscope $end
$scope module dff5 $end
$var wire 1 ! clk $end
$var wire 1 ' hold_flag_i $end
$var wire 1 " rst $end
$var wire 1 q set_data $end
$var wire 1 3 data_i $end
$var reg 1 9 data_o $end
$upscope $end
$scope module dff6 $end
$var wire 1 ! clk $end
$var wire 1 ' hold_flag_i $end
$var wire 1 " rst $end
$var wire 5 r set_data [4:0] $end
$var wire 5 s data_i [4:0] $end
$var reg 5 t data_o [4:0] $end
$upscope $end
$upscope $end
$scope module id_ins $end
$var wire 32 u rs2_data_i [31:0] $end
$var wire 5 v rs2 [4:0] $end
$var wire 32 w rs1_data_i [31:0] $end
$var wire 5 x rs1 [4:0] $end
$var wire 5 y rd [4:0] $end
$var wire 7 z opcode [6:0] $end
$var wire 32 { inst_i [31:0] $end
$var wire 32 | inst_addr_i [31:0] $end
$var wire 12 } imm [11:0] $end
$var wire 7 ~ funct7 [6:0] $end
$var wire 3 !" funct3 [2:0] $end
$var reg 32 "" inst_addr_o [31:0] $end
$var reg 32 #" inst_o [31:0] $end
$var reg 32 $" op1_o [31:0] $end
$var reg 32 %" op2_o [31:0] $end
$var reg 5 &" rd_addr_o [4:0] $end
$var reg 1 3 reg_wen $end
$var reg 5 '" rs1_addr_o [4:0] $end
$var reg 5 (" rs2_addr_o [4:0] $end
$upscope $end
$scope module if_id_ins $end
$var wire 1 ! clk $end
$var wire 1 ' hold_flag_i $end
$var wire 1 " rst $end
$var wire 32 )" inst_o [31:0] $end
$var wire 32 *" inst_i [31:0] $end
$var wire 32 +" inst_addr_o [31:0] $end
$var wire 32 ," inst_addr_i [31:0] $end
$scope module dff1 $end
$var wire 1 ! clk $end
$var wire 1 ' hold_flag_i $end
$var wire 1 " rst $end
$var wire 32 -" set_data [31:0] $end
$var wire 32 ." data_i [31:0] $end
$var reg 32 /" data_o [31:0] $end
$upscope $end
$scope module dff2 $end
$var wire 1 ! clk $end
$var wire 1 ' hold_flag_i $end
$var wire 1 " rst $end
$var wire 32 0" set_data [31:0] $end
$var wire 32 1" data_i [31:0] $end
$var reg 32 2" data_o [31:0] $end
$upscope $end
$upscope $end
$scope module ifetch_ins $end
$var wire 32 3" if2rom_addr_o [31:0] $end
$var wire 32 4" inst_addr_o [31:0] $end
$var wire 32 5" inst_o [31:0] $end
$var wire 32 6" rom_inst_i [31:0] $end
$var wire 32 7" pc_addr_i [31:0] $end
$upscope $end
$scope module pc_reg_ins $end
$var wire 1 ! clk $end
$var wire 32 8" jump_addr_i [31:0] $end
$var wire 1 E jump_en_i $end
$var wire 1 " rst $end
$var reg 32 9" pc_o [31:0] $end
$upscope $end
$scope module regs_ins $end
$var wire 1 ! clk $end
$var wire 5 :" rd_addr_i [4:0] $end
$var wire 32 ;" rd_data_i [31:0] $end
$var wire 5 <" reg1_raddr_i [4:0] $end
$var wire 5 =" reg2_raddr_i [4:0] $end
$var wire 1 ? reg_wen $end
$var wire 1 " rst $end
$var reg 32 >" reg1_rdata_o [31:0] $end
$var reg 32 ?" reg2_rdata_o [31:0] $end
$var integer 32 @" i [31:0] $end
$upscope $end
$upscope $end
$upscope $end
$upscope $end
$enddefinitions $end
#0
$dumpvars
b100000 @"
b0 ?"
b0 >"
b0 ="
b0 <"
b0 ;"
b0 :"
b0 9"
b0 8"
b0 7"
b10011000000000110110010011 6"
b10011000000000110110010011 5"
b0 4"
b0 3"
b0 2"
b0 1"
b0 0"
b1 /"
b10011000000000110110010011 ."
b1 -"
b0 ,"
b0 +"
b10011000000000110110010011 *"
b1 )"
b0 ("
b0 '"
b0 &"
b0 %"
b0 $"
b1 #"
b0 ""
b0 !"
b0 ~
b0 }
b0 |
b1 {
b1 z
b0 y
b0 x
b0 w
b0 v
b0 u
b0 t
b0 s
b0 r
0q
b0 p
b0 o
b0 n
b0 m
b0 l
b0 k
b0 j
b0 i
b0 h
b1 g
b1 f
b1 e
b0 d
b0 c
b1 b
b1 a
b0 `
b0 _
b0 ^
b0 ]
b0 \
b0 [
b0 Z
b0 Y
b0 X
b0 W
b0 V
b0 U
b0 T
b1 S
b0 R
b0 Q
1P
b0 O
b1 N
b0 M
b0 L
b0 K
b0 J
b0 I
b0 H
0G
b0 F
0E
0D
b0 C
0B
b0 A
b0 @
0?
b0 >
b1 =
b0 <
b0 ;
b0 :
09
b0 8
b1 7
b0 6
b0 5
b0 4
03
b0 2
b0 1
b0 0
b1 /
b0 .
b10011000000000110110010011 -
b0 ,
b0 +
b0 *
b0 )
b10011000000000110110010011 (
z'
b10011000000000110110010011 &
b0 %
b10011000000000110110010011 $
b0 #
0"
1!
$end
#10000
0!
#20000
b100000 @"
1!
#30000
0!
1"
#40000
b11011 4
b11011 \
b11011 s
b11011 &"
13
b100110 5
b100110 ^
b100110 o
b100110 %"
b11011000000000111000010011 -
b11011000000000111000010011 *"
b11011000000000111000010011 ."
b11011000000000111000010011 5"
b11011000000000111000010011 $
b11011000000000111000010011 &
b11011000000000111000010011 (
b11011000000000111000010011 6"
b1 ~
b110 v
b100110 }
b11011 y
b10011 z
b10011000000000110110010011 7
b10011000000000110110010011 b
b10011000000000110110010011 f
b10011000000000110110010011 #"
b100 .
b100 ,"
b100 1"
b100 4"
b100 #
b100 %
b100 ,
b100 3"
b100 +
b100 7"
b100 9"
b10011000000000110110010011 /
b10011000000000110110010011 {
b10011000000000110110010011 )"
b10011000000000110110010011 /"
1!
#50000
0!
#60000
1?
b11011 A
b11011 Y
b11011 :"
b100110 @
b100110 Z
b100110 ;"
b11100 4
b11100 \
b11100 s
b11100 &"
b110110 5
b110110 ^
b110110 o
b110110 %"
0P
b100000111010 R
b1 V
b110 J
b100110 U
b11011 M
b10011 N
b10110 v
b110110 }
b11100 y
b100 8
b100 d
b100 i
b100 ""
b11011000000000111000010011 7
b11011000000000111000010011 b
b11011000000000111000010011 f
b11011000000000111000010011 #"
b1110011011000111010110011 -
b1110011011000111010110011 *"
b1110011011000111010110011 ."
b1110011011000111010110011 5"
b1110011011000111010110011 $
b1110011011000111010110011 &
b1110011011000111010110011 (
b1110011011000111010110011 6"
b11011 :
b11011 L
b11011 [
b11011 t
19
b100110 ;
b100110 O
b100110 ]
b100110 p
b10011000000000110110010011 =
b10011000000000110110010011 S
b10011000000000110110010011 a
b10011000000000110110010011 g
b100 0
b100 |
b100 +"
b100 2"
b11011000000000111000010011 /
b11011000000000111000010011 {
b11011000000000111000010011 )"
b11011000000000111000010011 /"
b1000 .
b1000 ,"
b1000 1"
b1000 4"
b1000 #
b1000 %
b1000 ,
b1000 3"
b1000 +
b1000 7"
b1000 9"
1!
#70000
0!
#80000
b100110 6
b100110 `
b100110 l
b100110 $"
b110110 )
b110110 u
b110110 ?"
b100110 *
b100110 w
b100110 >"
b11101 4
b11101 \
b11101 s
b11101 &"
b110110 5
b110110 ^
b110110 o
b110110 %"
b11100 1
b11100 ("
b11100 ="
b11011 2
b11011 '"
b11011 <"
b11100 A
b11100 Y
b11100 :"
bx -
bx *"
bx ."
bx 5"
bx $
bx &
bx (
bx 6"
b0 ~
b11100 v
b11100 }
b11011 x
b11101 y
b110011 z
b1000 8
b1000 d
b1000 i
b1000 ""
b1110011011000111010110011 7
b1110011011000111010110011 b
b1110011011000111010110011 f
b1110011011000111010110011 #"
b111100 R
b10110 J
b110110 U
b11100 M
b110110 @
b110110 Z
b110110 ;"
b1100 .
b1100 ,"
b1100 1"
b1100 4"
b1100 #
b1100 %
b1100 ,
b1100 3"
b1100 +
b1100 7"
b1100 9"
b1110011011000111010110011 /
b1110011011000111010110011 {
b1110011011000111010110011 )"
b1110011011000111010110011 /"
b1000 0
b1000 |
b1000 +"
b1000 2"
b11011000000000111000010011 =
b11011000000000111000010011 S
b11011000000000111000010011 a
b11011000000000111000010011 g
b100 >
b100 T
b100 c
b100 j
b110110 ;
b110110 O
b110110 ]
b110110 p
b11100 :
b11100 L
b11100 [
b11100 t
1!
#90000
0!
#100000
b11101 A
b11101 Y
b11101 :"
b0 )
b0 u
b0 ?"
b0 *
b0 w
b0 >"
b0 4
b0 \
b0 s
b0 &"
03
b0 5
b0 ^
b0 o
b0 %"
b0 6
b0 `
b0 l
b0 $"
b0 1
b0 ("
b0 ="
b0 2
b0 '"
b0 <"
b100000011100 R
b0 V
b11100 J
b11100 U
b11011 K
b11101 M
b110011 N
b1011100 @
b1011100 Z
b1011100 ;"
bx ~
bx v
bx }
bx x
bx !"
bx y
bx z
b1100 8
b1100 d
b1100 i
b1100 ""
bx 7
bx b
bx f
bx #"
b11101 :
b11101 L
b11101 [
b11101 t
b100110 <
b100110 Q
b100110 _
b100110 m
b1000 >
b1000 T
b1000 c
b1000 j
b1110011011000111010110011 =
b1110011011000111010110011 S
b1110011011000111010110011 a
b1110011011000111010110011 g
b1100 0
b1100 |
b1100 +"
b1100 2"
bx /
bx {
bx )"
bx /"
b10000 .
b10000 ,"
b10000 1"
b10000 4"
b10000 #
b10000 %
b10000 ,
b10000 3"
b10000 +
b10000 7"
b10000 9"
1!
#110000
0!
#120000
b0 A
b0 Y
b0 :"
b10000 8
b10000 d
b10000 i
b10000 ""
bx0 R
bx V
bx J
bx U
bx K
bx W
bx M
bx N
1P
0?
b0 @
b0 Z
b0 ;"
b10100 .
b10100 ,"
b10100 1"
b10100 4"
b10100 #
b10100 %
b10100 ,
b10100 3"
b10100 +
b10100 7"
b10100 9"
b10000 0
b10000 |
b10000 +"
b10000 2"
bx =
bx S
bx a
bx g
b1100 >
b1100 T
b1100 c
b1100 j
b0 <
b0 Q
b0 _
b0 m
b0 ;
b0 O
b0 ]
b0 p
09
b0 :
b0 L
b0 [
b0 t
1!
#130000
0!
#140000
b10100 8
b10100 d
b10100 i
b10100 ""
b10000 >
b10000 T
b10000 c
b10000 j
b10100 0
b10100 |
b10100 +"
b10100 2"
b11000 .
b11000 ,"
b11000 1"
b11000 4"
b11000 #
b11000 %
b11000 ,
b11000 3"
b11000 +
b11000 7"
b11000 9"
1!
#150000
0!
#160000
b11000 8
b11000 d
b11000 i
b11000 ""
b11100 .
b11100 ,"
b11100 1"
b11100 4"
b11100 #
b11100 %
b11100 ,
b11100 3"
b11100 +
b11100 7"
b11100 9"
b11000 0
b11000 |
b11000 +"
b11000 2"
b10100 >
b10100 T
b10100 c
b10100 j
1!
#170000
0!
#180000
b11100 8
b11100 d
b11100 i
b11100 ""
b11000 >
b11000 T
b11000 c
b11000 j
b11100 0
b11100 |
b11100 +"
b11100 2"
b100000 .
b100000 ,"
b100000 1"
b100000 4"
b100000 #
b100000 %
b100000 ,
b100000 3"
b100000 +
b100000 7"
b100000 9"
1!
#190000
0!
#200000
b100000 8
b100000 d
b100000 i
b100000 ""
b100100 .
b100100 ,"
b100100 1"
b100100 4"
b100100 #
b100100 %
b100100 ,
b100100 3"
b100100 +
b100100 7"
b100100 9"
b100000 0
b100000 |
b100000 +"
b100000 2"
b11100 >
b11100 T
b11100 c
b11100 j
1!
#210000
0!
#220000
b100100 8
b100100 d
b100100 i
b100100 ""
b100000 >
b100000 T
b100000 c
b100000 j
b100100 0
b100100 |
b100100 +"
b100100 2"
b101000 .
b101000 ,"
b101000 1"
b101000 4"
b101000 #
b101000 %
b101000 ,
b101000 3"
b101000 +
b101000 7"
b101000 9"
1!
#230000
0!
#240000
b101000 8
b101000 d
b101000 i
b101000 ""
b101100 .
b101100 ,"
b101100 1"
b101100 4"
b101100 #
b101100 %
b101100 ,
b101100 3"
b101100 +
b101100 7"
b101100 9"
b101000 0
b101000 |
b101000 +"
b101000 2"
b100100 >
b100100 T
b100100 c
b100100 j
1!
#250000
0!
#260000
b101100 8
b101100 d
b101100 i
b101100 ""
b101000 >
b101000 T
b101000 c
b101000 j
b101100 0
b101100 |
b101100 +"
b101100 2"
b110000 .
b110000 ,"
b110000 1"
b110000 4"
b110000 #
b110000 %
b110000 ,
b110000 3"
b110000 +
b110000 7"
b110000 9"
1!
#270000
0!
#280000
b110000 8
b110000 d
b110000 i
b110000 ""
b110100 .
b110100 ,"
b110100 1"
b110100 4"
b110100 #
b110100 %
b110100 ,
b110100 3"
b110100 +
b110100 7"
b110100 9"
b110000 0
b110000 |
b110000 +"
b110000 2"
b101100 >
b101100 T
b101100 c
b101100 j
1!
#290000
0!
#300000
b110100 8
b110100 d
b110100 i
b110100 ""
b110000 >
b110000 T
b110000 c
b110000 j
b110100 0
b110100 |
b110100 +"
b110100 2"
b111000 .
b111000 ,"
b111000 1"
b111000 4"
b111000 #
b111000 %
b111000 ,
b111000 3"
b111000 +
b111000 7"
b111000 9"
1!
#310000
0!
#320000
b111000 8
b111000 d
b111000 i
b111000 ""
b111100 .
b111100 ,"
b111100 1"
b111100 4"
b111100 #
b111100 %
b111100 ,
b111100 3"
b111100 +
b111100 7"
b111100 9"
b111000 0
b111000 |
b111000 +"
b111000 2"
b110100 >
b110100 T
b110100 c
b110100 j
1!
#330000
0!
#340000
b111100 8
b111100 d
b111100 i
b111100 ""
b111000 >
b111000 T
b111000 c
b111000 j
b111100 0
b111100 |
b111100 +"
b111100 2"
b1000000 .
b1000000 ,"
b1000000 1"
b1000000 4"
b1000000 #
b1000000 %
b1000000 ,
b1000000 3"
b1000000 +
b1000000 7"
b1000000 9"
1!
#350000
0!
#360000
b1000000 8
b1000000 d
b1000000 i
b1000000 ""
b1000100 .
b1000100 ,"
b1000100 1"
b1000100 4"
b1000100 #
b1000100 %
b1000100 ,
b1000100 3"
b1000100 +
b1000100 7"
b1000100 9"
b1000000 0
b1000000 |
b1000000 +"
b1000000 2"
b111100 >
b111100 T
b111100 c
b111100 j
1!
#370000
0!
#380000
b1000100 8
b1000100 d
b1000100 i
b1000100 ""
b1000000 >
b1000000 T
b1000000 c
b1000000 j
b1000100 0
b1000100 |
b1000100 +"
b1000100 2"
b1001000 .
b1001000 ,"
b1001000 1"
b1001000 4"
b1001000 #
b1001000 %
b1001000 ,
b1001000 3"
b1001000 +
b1001000 7"
b1001000 9"
1!
#390000
0!
#400000
b1001000 8
b1001000 d
b1001000 i
b1001000 ""
b1001100 .
b1001100 ,"
b1001100 1"
b1001100 4"
b1001100 #
b1001100 %
b1001100 ,
b1001100 3"
b1001100 +
b1001100 7"
b1001100 9"
b1001000 0
b1001000 |
b1001000 +"
b1001000 2"
b1000100 >
b1000100 T
b1000100 c
b1000100 j
1!
#410000
0!
#420000
b1001100 8
b1001100 d
b1001100 i
b1001100 ""
b1001000 >
b1001000 T
b1001000 c
b1001000 j
b1001100 0
b1001100 |
b1001100 +"
b1001100 2"
b1010000 .
b1010000 ,"
b1010000 1"
b1010000 4"
b1010000 #
b1010000 %
b1010000 ,
b1010000 3"
b1010000 +
b1010000 7"
b1010000 9"
1!
#430000
0!
#440000
b1010000 8
b1010000 d
b1010000 i
b1010000 ""
b1010100 .
b1010100 ,"
b1010100 1"
b1010100 4"
b1010100 #
b1010100 %
b1010100 ,
b1010100 3"
b1010100 +
b1010100 7"
b1010100 9"
b1010000 0
b1010000 |
b1010000 +"
b1010000 2"
b1001100 >
b1001100 T
b1001100 c
b1001100 j
1!
#450000
0!
#460000
b1010100 8
b1010100 d
b1010100 i
b1010100 ""
b1010000 >
b1010000 T
b1010000 c
b1010000 j
b1010100 0
b1010100 |
b1010100 +"
b1010100 2"
b1011000 .
b1011000 ,"
b1011000 1"
b1011000 4"
b1011000 #
b1011000 %
b1011000 ,
b1011000 3"
b1011000 +
b1011000 7"
b1011000 9"
1!
#470000
0!
#480000
b1011000 8
b1011000 d
b1011000 i
b1011000 ""
b1011100 .
b1011100 ,"
b1011100 1"
b1011100 4"
b1011100 #
b1011100 %
b1011100 ,
b1011100 3"
b1011100 +
b1011100 7"
b1011100 9"
b1011000 0
b1011000 |
b1011000 +"
b1011000 2"
b1010100 >
b1010100 T
b1010100 c
b1010100 j
1!
#490000
0!
#500000
b1011100 8
b1011100 d
b1011100 i
b1011100 ""
b1011000 >
b1011000 T
b1011000 c
b1011000 j
b1011100 0
b1011100 |
b1011100 +"
b1011100 2"
b1100000 .
b1100000 ,"
b1100000 1"
b1100000 4"
b1100000 #
b1100000 %
b1100000 ,
b1100000 3"
b1100000 +
b1100000 7"
b1100000 9"
1!
#510000
0!
#520000
b1100000 8
b1100000 d
b1100000 i
b1100000 ""
b1100100 .
b1100100 ,"
b1100100 1"
b1100100 4"
b1100100 #
b1100100 %
b1100100 ,
b1100100 3"
b1100100 +
b1100100 7"
b1100100 9"
b1100000 0
b1100000 |
b1100000 +"
b1100000 2"
b1011100 >
b1011100 T
b1011100 c
b1011100 j
1!
#530000
0!
#540000
b1100100 8
b1100100 d
b1100100 i
b1100100 ""
b1100000 >
b1100000 T
b1100000 c
b1100000 j
b1100100 0
b1100100 |
b1100100 +"
b1100100 2"
b1101000 .
b1101000 ,"
b1101000 1"
b1101000 4"
b1101000 #
b1101000 %
b1101000 ,
b1101000 3"
b1101000 +
b1101000 7"
b1101000 9"
1!
#550000
0!
#560000
b1101000 8
b1101000 d
b1101000 i
b1101000 ""
b1101100 .
b1101100 ,"
b1101100 1"
b1101100 4"
b1101100 #
b1101100 %
b1101100 ,
b1101100 3"
b1101100 +
b1101100 7"
b1101100 9"
b1101000 0
b1101000 |
b1101000 +"
b1101000 2"
b1100100 >
b1100100 T
b1100100 c
b1100100 j
1!
#570000
0!
#580000
b1101100 8
b1101100 d
b1101100 i
b1101100 ""
b1101000 >
b1101000 T
b1101000 c
b1101000 j
b1101100 0
b1101100 |
b1101100 +"
b1101100 2"
b1110000 .
b1110000 ,"
b1110000 1"
b1110000 4"
b1110000 #
b1110000 %
b1110000 ,
b1110000 3"
b1110000 +
b1110000 7"
b1110000 9"
1!
#590000
0!
#600000
b1110000 8
b1110000 d
b1110000 i
b1110000 ""
b1110100 .
b1110100 ,"
b1110100 1"
b1110100 4"
b1110100 #
b1110100 %
b1110100 ,
b1110100 3"
b1110100 +
b1110100 7"
b1110100 9"
b1110000 0
b1110000 |
b1110000 +"
b1110000 2"
b1101100 >
b1101100 T
b1101100 c
b1101100 j
1!
#610000
0!
#620000
b1110100 8
b1110100 d
b1110100 i
b1110100 ""
b1110000 >
b1110000 T
b1110000 c
b1110000 j
b1110100 0
b1110100 |
b1110100 +"
b1110100 2"
b1111000 .
b1111000 ,"
b1111000 1"
b1111000 4"
b1111000 #
b1111000 %
b1111000 ,
b1111000 3"
b1111000 +
b1111000 7"
b1111000 9"
1!
#630000
0!
#640000
b1111000 8
b1111000 d
b1111000 i
b1111000 ""
b1111100 .
b1111100 ,"
b1111100 1"
b1111100 4"
b1111100 #
b1111100 %
b1111100 ,
b1111100 3"
b1111100 +
b1111100 7"
b1111100 9"
b1111000 0
b1111000 |
b1111000 +"
b1111000 2"
b1110100 >
b1110100 T
b1110100 c
b1110100 j
1!
#650000
0!
#660000
b1111100 8
b1111100 d
b1111100 i
b1111100 ""
b1111000 >
b1111000 T
b1111000 c
b1111000 j
b1111100 0
b1111100 |
b1111100 +"
b1111100 2"
b10000000 .
b10000000 ,"
b10000000 1"
b10000000 4"
b10000000 #
b10000000 %
b10000000 ,
b10000000 3"
b10000000 +
b10000000 7"
b10000000 9"
1!
#670000
0!
#680000
b10000000 8
b10000000 d
b10000000 i
b10000000 ""
b10000100 .
b10000100 ,"
b10000100 1"
b10000100 4"
b10000100 #
b10000100 %
b10000100 ,
b10000100 3"
b10000100 +
b10000100 7"
b10000100 9"
b10000000 0
b10000000 |
b10000000 +"
b10000000 2"
b1111100 >
b1111100 T
b1111100 c
b1111100 j
1!
#690000
0!
#700000
b10000100 8
b10000100 d
b10000100 i
b10000100 ""
b10000000 >
b10000000 T
b10000000 c
b10000000 j
b10000100 0
b10000100 |
b10000100 +"
b10000100 2"
b10001000 .
b10001000 ,"
b10001000 1"
b10001000 4"
b10001000 #
b10001000 %
b10001000 ,
b10001000 3"
b10001000 +
b10001000 7"
b10001000 9"
1!
#710000
0!
#720000
b10001000 8
b10001000 d
b10001000 i
b10001000 ""
b10001100 .
b10001100 ,"
b10001100 1"
b10001100 4"
b10001100 #
b10001100 %
b10001100 ,
b10001100 3"
b10001100 +
b10001100 7"
b10001100 9"
b10001000 0
b10001000 |
b10001000 +"
b10001000 2"
b10000100 >
b10000100 T
b10000100 c
b10000100 j
1!
#730000
0!
#740000
b10001100 8
b10001100 d
b10001100 i
b10001100 ""
b10001000 >
b10001000 T
b10001000 c
b10001000 j
b10001100 0
b10001100 |
b10001100 +"
b10001100 2"
b10010000 .
b10010000 ,"
b10010000 1"
b10010000 4"
b10010000 #
b10010000 %
b10010000 ,
b10010000 3"
b10010000 +
b10010000 7"
b10010000 9"
1!
#750000
0!
#760000
b10010000 8
b10010000 d
b10010000 i
b10010000 ""
b10010100 .
b10010100 ,"
b10010100 1"
b10010100 4"
b10010100 #
b10010100 %
b10010100 ,
b10010100 3"
b10010100 +
b10010100 7"
b10010100 9"
b10010000 0
b10010000 |
b10010000 +"
b10010000 2"
b10001100 >
b10001100 T
b10001100 c
b10001100 j
1!
#770000
0!
#780000
b10010100 8
b10010100 d
b10010100 i
b10010100 ""
b10010000 >
b10010000 T
b10010000 c
b10010000 j
b10010100 0
b10010100 |
b10010100 +"
b10010100 2"
b10011000 .
b10011000 ,"
b10011000 1"
b10011000 4"
b10011000 #
b10011000 %
b10011000 ,
b10011000 3"
b10011000 +
b10011000 7"
b10011000 9"
1!
#790000
0!
#800000
b10011000 8
b10011000 d
b10011000 i
b10011000 ""
b10011100 .
b10011100 ,"
b10011100 1"
b10011100 4"
b10011100 #
b10011100 %
b10011100 ,
b10011100 3"
b10011100 +
b10011100 7"
b10011100 9"
b10011000 0
b10011000 |
b10011000 +"
b10011000 2"
b10010100 >
b10010100 T
b10010100 c
b10010100 j
1!
#810000
0!
#820000
b10011100 8
b10011100 d
b10011100 i
b10011100 ""
b10011000 >
b10011000 T
b10011000 c
b10011000 j
b10011100 0
b10011100 |
b10011100 +"
b10011100 2"
b10100000 .
b10100000 ,"
b10100000 1"
b10100000 4"
b10100000 #
b10100000 %
b10100000 ,
b10100000 3"
b10100000 +
b10100000 7"
b10100000 9"
1!
#830000
0!
#840000
b10100000 8
b10100000 d
b10100000 i
b10100000 ""
b10100100 .
b10100100 ,"
b10100100 1"
b10100100 4"
b10100100 #
b10100100 %
b10100100 ,
b10100100 3"
b10100100 +
b10100100 7"
b10100100 9"
b10100000 0
b10100000 |
b10100000 +"
b10100000 2"
b10011100 >
b10011100 T
b10011100 c
b10011100 j
1!
#850000
0!
#860000
b10100100 8
b10100100 d
b10100100 i
b10100100 ""
b10100000 >
b10100000 T
b10100000 c
b10100000 j
b10100100 0
b10100100 |
b10100100 +"
b10100100 2"
b10101000 .
b10101000 ,"
b10101000 1"
b10101000 4"
b10101000 #
b10101000 %
b10101000 ,
b10101000 3"
b10101000 +
b10101000 7"
b10101000 9"
1!
#870000
0!
#880000
b10101000 8
b10101000 d
b10101000 i
b10101000 ""
b10101100 .
b10101100 ,"
b10101100 1"
b10101100 4"
b10101100 #
b10101100 %
b10101100 ,
b10101100 3"
b10101100 +
b10101100 7"
b10101100 9"
b10101000 0
b10101000 |
b10101000 +"
b10101000 2"
b10100100 >
b10100100 T
b10100100 c
b10100100 j
1!
#890000
0!
#900000
b10101100 8
b10101100 d
b10101100 i
b10101100 ""
b10101000 >
b10101000 T
b10101000 c
b10101000 j
b10101100 0
b10101100 |
b10101100 +"
b10101100 2"
b10110000 .
b10110000 ,"
b10110000 1"
b10110000 4"
b10110000 #
b10110000 %
b10110000 ,
b10110000 3"
b10110000 +
b10110000 7"
b10110000 9"
1!
#910000
0!
#920000
b10110000 8
b10110000 d
b10110000 i
b10110000 ""
b10110100 .
b10110100 ,"
b10110100 1"
b10110100 4"
b10110100 #
b10110100 %
b10110100 ,
b10110100 3"
b10110100 +
b10110100 7"
b10110100 9"
b10110000 0
b10110000 |
b10110000 +"
b10110000 2"
b10101100 >
b10101100 T
b10101100 c
b10101100 j
1!
#930000
0!
#940000
b10110100 8
b10110100 d
b10110100 i
b10110100 ""
b10110000 >
b10110000 T
b10110000 c
b10110000 j
b10110100 0
b10110100 |
b10110100 +"
b10110100 2"
b10111000 .
b10111000 ,"
b10111000 1"
b10111000 4"
b10111000 #
b10111000 %
b10111000 ,
b10111000 3"
b10111000 +
b10111000 7"
b10111000 9"
1!
#950000
0!
#960000
b10111000 8
b10111000 d
b10111000 i
b10111000 ""
b10111100 .
b10111100 ,"
b10111100 1"
b10111100 4"
b10111100 #
b10111100 %
b10111100 ,
b10111100 3"
b10111100 +
b10111100 7"
b10111100 9"
b10111000 0
b10111000 |
b10111000 +"
b10111000 2"
b10110100 >
b10110100 T
b10110100 c
b10110100 j
1!
#970000
0!
