tb/tb.vcd
$date
	Sun May  8 11:22:38 2022
$end
$version
	Icarus Verilog
$end
$timescale
	1ps
$end
$scope module tb $end
$var reg 1 ! clk $end
$var reg 1 " rst $end
$scope module rv_soc_ins $end
$var wire 1 ! clk $end
$var wire 1 " rst $end
$var wire 32 # rv_core_inst_addr_o [31:0] $end
$var wire 32 $ rom_inst_o [31:0] $end
$scope module rom_ins $end
$var wire 32 % inst_addr_i [31:0] $end
$var reg 32 & inst_o [31:0] $end
$upscope $end
$scope module rv_core_ins $end
$var wire 1 ! clk $end
$var wire 32 ' inst_i [31:0] $end
$var wire 1 " rst $end
$var wire 32 ( regs_reg2_rdata_o [31:0] $end
$var wire 32 ) regs_reg1_rdata_o [31:0] $end
$var wire 32 * pc_reg_pc_o [31:0] $end
$var wire 32 + inst_addr_o [31:0] $end
$var wire 32 , ifetch_inst_o [31:0] $end
$var wire 32 - ifetch_inst_addr_o [31:0] $end
$var wire 32 . if_id_inst_o [31:0] $end
$var wire 32 / if_id_inst_addr_o [31:0] $end
$var wire 5 0 id_rs2_addr_o [4:0] $end
$var wire 5 1 id_rs1_addr_o [4:0] $end
$var wire 1 2 id_reg_wen $end
$var wire 5 3 id_rd_addr_o [4:0] $end
$var wire 32 4 id_op2_o [31:0] $end
$var wire 32 5 id_op1_o [31:0] $end
$var wire 32 6 id_inst_o [31:0] $end
$var wire 32 7 id_inst_addr_o [31:0] $end
$var wire 1 8 id_ex_reg_wen_o $end
$var wire 5 9 id_ex_rd_addr_o [4:0] $end
$var wire 32 : id_ex_op2_o [31:0] $end
$var wire 32 ; id_ex_op1_o [31:0] $end
$var wire 32 < id_ex_inst_o [31:0] $end
$var wire 32 = id_ex_inst_addr_o [31:0] $end
$var wire 1 > ex_reg_wen_o $end
$var wire 32 ? ex_rd_data_o [31:0] $end
$var wire 5 @ ex_rd_addr_o [4:0] $end
$scope module ex_ins $end
$var wire 5 A rs2 [4:0] $end
$var wire 5 B rs1 [4:0] $end
$var wire 1 8 reg_wen_i $end
$var wire 5 C rd_addr_i [4:0] $end
$var wire 5 D rd [4:0] $end
$var wire 7 E opcode [6:0] $end
$var wire 32 F op2_i [31:0] $end
$var wire 32 G op1_i [31:0] $end
$var wire 32 H inst_i [31:0] $end
$var wire 32 I inst_addr_i [31:0] $end
$var wire 12 J imm [11:0] $end
$var wire 7 K funct7 [6:0] $end
$var wire 3 L funct3 [2:0] $end
$var reg 5 M rd_addr_o [4:0] $end
$var reg 32 N rd_data_o [31:0] $end
$var reg 1 > reg_wen_o $end
$upscope $end
$scope module id_ex_ins $end
$var wire 1 ! clk $end
$var wire 1 " rst $end
$var wire 1 8 reg_wen_o $end
$var wire 1 2 reg_wen_i $end
$var wire 5 O rd_addr_o [4:0] $end
$var wire 5 P rd_addr_i [4:0] $end
$var wire 32 Q op2_o [31:0] $end
$var wire 32 R op2_i [31:0] $end
$var wire 32 S op1_o [31:0] $end
$var wire 32 T op1_i [31:0] $end
$var wire 32 U inst_o [31:0] $end
$var wire 32 V inst_i [31:0] $end
$var wire 32 W inst_addr_o [31:0] $end
$var wire 32 X inst_addr_i [31:0] $end
$scope module dff1 $end
$var wire 1 ! clk $end
$var wire 1 " rst $end
$var wire 32 Y set_data [31:0] $end
$var wire 32 Z data_i [31:0] $end
$var reg 32 [ data_o [31:0] $end
$upscope $end
$scope module dff2 $end
$var wire 1 ! clk $end
$var wire 1 " rst $end
$var wire 32 \ set_data [31:0] $end
$var wire 32 ] data_i [31:0] $end
$var reg 32 ^ data_o [31:0] $end
$upscope $end
$scope module dff3 $end
$var wire 1 ! clk $end
$var wire 1 " rst $end
$var wire 32 _ set_data [31:0] $end
$var wire 32 ` data_i [31:0] $end
$var reg 32 a data_o [31:0] $end
$upscope $end
$scope module dff4 $end
$var wire 1 ! clk $end
$var wire 1 " rst $end
$var wire 32 b set_data [31:0] $end
$var wire 32 c data_i [31:0] $end
$var reg 32 d data_o [31:0] $end
$upscope $end
$scope module dff5 $end
$var wire 1 ! clk $end
$var wire 1 " rst $end
$var wire 1 e set_data $end
$var wire 1 2 data_i $end
$var reg 1 8 data_o $end
$upscope $end
$scope module dff6 $end
$var wire 1 ! clk $end
$var wire 1 " rst $end
$var wire 5 f set_data [4:0] $end
$var wire 5 g data_i [4:0] $end
$var reg 5 h data_o [4:0] $end
$upscope $end
$upscope $end
$scope module id_ins $end
$var wire 32 i rs2_data_i [31:0] $end
$var wire 5 j rs2 [4:0] $end
$var wire 32 k rs1_data_i [31:0] $end
$var wire 5 l rs1 [4:0] $end
$var wire 5 m rd [4:0] $end
$var wire 7 n opcode [6:0] $end
$var wire 32 o inst_i [31:0] $end
$var wire 32 p inst_addr_i [31:0] $end
$var wire 12 q imm [11:0] $end
$var wire 7 r funct7 [6:0] $end
$var wire 3 s funct3 [2:0] $end
$var reg 32 t inst_addr_o [31:0] $end
$var reg 32 u inst_o [31:0] $end
$var reg 32 v op1_o [31:0] $end
$var reg 32 w op2_o [31:0] $end
$var reg 5 x rd_addr_o [4:0] $end
$var reg 1 2 reg_wen $end
$var reg 5 y rs1_addr_o [4:0] $end
$var reg 5 z rs2_addr_o [4:0] $end
$upscope $end
$scope module if_id_ins $end
$var wire 1 ! clk $end
$var wire 1 " rst $end
$var wire 32 { inst_o [31:0] $end
$var wire 32 | inst_i [31:0] $end
$var wire 32 } inst_addr_o [31:0] $end
$var wire 32 ~ inst_addr_i [31:0] $end
$scope module dff1 $end
$var wire 1 ! clk $end
$var wire 1 " rst $end
$var wire 32 !" set_data [31:0] $end
$var wire 32 "" data_i [31:0] $end
$var reg 32 #" data_o [31:0] $end
$upscope $end
$scope module dff2 $end
$var wire 1 ! clk $end
$var wire 1 " rst $end
$var wire 32 $" set_data [31:0] $end
$var wire 32 %" data_i [31:0] $end
$var reg 32 &" data_o [31:0] $end
$upscope $end
$upscope $end
$scope module ifetch_ins $end
$var wire 32 '" if2rom_addr_o [31:0] $end
$var wire 32 (" inst_addr_o [31:0] $end
$var wire 32 )" inst_o [31:0] $end
$var wire 32 *" rom_inst_i [31:0] $end
$var wire 32 +" pc_addr_i [31:0] $end
$upscope $end
$scope module pc_reg_ins $end
$var wire 1 ! clk $end
$var wire 1 " rst $end
$var reg 32 ," pc_o [31:0] $end
$upscope $end
$scope module regs_ins $end
$var wire 1 ! clk $end
$var wire 5 -" rd_addr_i [4:0] $end
$var wire 32 ." rd_data_i [31:0] $end
$var wire 5 /" reg1_raddr_i [4:0] $end
$var wire 5 0" reg2_raddr_i [4:0] $end
$var wire 1 > reg_wen $end
$var wire 1 " rst $end
$var reg 32 1" reg1_rdata_o [31:0] $end
$var reg 32 2" reg2_rdata_o [31:0] $end
$var integer 32 3" i [31:0] $end
$upscope $end
$upscope $end
$upscope $end
$upscope $end
$enddefinitions $end
#0
$dumpvars
b100000 3"
b0 2"
b0 1"
b0 0"
b0 /"
b0 ."
b0 -"
b0 ,"
b0 +"
b10011000000000110110010011 *"
b10011000000000110110010011 )"
b0 ("
b0 '"
b0 &"
b0 %"
b0 $"
b1 #"
b10011000000000110110010011 ""
b1 !"
b0 ~
b0 }
b10011000000000110110010011 |
b1 {
b0 z
b0 y
b0 x
b0 w
b0 v
b1 u
b0 t
b0 s
b0 r
b0 q
b0 p
b1 o
b1 n
b0 m
b0 l
b0 k
b0 j
b0 i
b0 h
b0 g
b0 f
0e
b0 d
b0 c
b0 b
b0 a
b0 `
b0 _
b0 ^
b0 ]
b0 \
b1 [
b1 Z
b1 Y
b0 X
b0 W
b1 V
b1 U
b0 T
b0 S
b0 R
b0 Q
b0 P
b0 O
b0 N
b0 M
b0 L
b0 K
b0 J
b0 I
b1 H
b0 G
b0 F
b1 E
b0 D
b0 C
b0 B
b0 A
b0 @
b0 ?
0>
b0 =
b1 <
b0 ;
b0 :
b0 9
08
b0 7
b1 6
b0 5
b0 4
b0 3
02
b0 1
b0 0
b0 /
b1 .
b0 -
b10011000000000110110010011 ,
b0 +
b0 *
b0 )
b0 (
b10011000000000110110010011 '
b10011000000000110110010011 &
b0 %
b10011000000000110110010011 $
b0 #
0"
1!
$end
#10000
0!
#20000
b100000 3"
1!
#30000
0!
1"
#40000
b11011 3
b11011 P
b11011 g
b11011 x
12
b100110 4
b100110 R
b100110 c
b100110 w
b11011000000000111000010011 ,
b11011000000000111000010011 |
b11011000000000111000010011 ""
b11011000000000111000010011 )"
b11011000000000111000010011 $
b11011000000000111000010011 &
b11011000000000111000010011 '
b11011000000000111000010011 *"
b1 r
b110 j
b100110 q
b11011 m
b10011 n
b10011000000000110110010011 6
b10011000000000110110010011 V
b10011000000000110110010011 Z
b10011000000000110110010011 u
b100 -
b100 ~
b100 %"
b100 ("
b100 #
b100 %
b100 +
b100 '"
b100 *
b100 +"
b100 ,"
b10011000000000110110010011 .
b10011000000000110110010011 o
b10011000000000110110010011 {
b10011000000000110110010011 #"
1!
#50000
0!
#60000
b11100 3
b11100 P
b11100 g
b11100 x
b110110 4
b110110 R
b110110 c
b110110 w
1>
b11011 @
b11011 M
b11011 -"
b100110 ?
b100110 N
b100110 ."
b1 K
b110 A
b100110 J
b11011 D
b10011 E
b10110 j
b110110 q
b11100 m
b100 7
b100 X
b100 ]
b100 t
b11011000000000111000010011 6
b11011000000000111000010011 V
b11011000000000111000010011 Z
b11011000000000111000010011 u
b1110011011000111010110011 ,
b1110011011000111010110011 |
b1110011011000111010110011 ""
b1110011011000111010110011 )"
b1110011011000111010110011 $
b1110011011000111010110011 &
b1110011011000111010110011 '
b1110011011000111010110011 *"
b11011 9
b11011 C
b11011 O
b11011 h
18
b100110 :
b100110 F
b100110 Q
b100110 d
b10011000000000110110010011 <
b10011000000000110110010011 H
b10011000000000110110010011 U
b10011000000000110110010011 [
b100 /
b100 p
b100 }
b100 &"
b11011000000000111000010011 .
b11011000000000111000010011 o
b11011000000000111000010011 {
b11011000000000111000010011 #"
b1000 -
b1000 ~
b1000 %"
b1000 ("
b1000 #
b1000 %
b1000 +
b1000 '"
b1000 *
b1000 +"
b1000 ,"
1!
#70000
0!
#80000
b100110 5
b100110 T
b100110 `
b100110 v
b110110 (
b110110 i
b110110 2"
b100110 )
b100110 k
b100110 1"
b11101 3
b11101 P
b11101 g
b11101 x
b110110 4
b110110 R
b110110 c
b110110 w
b11100 0
b11100 z
b11100 0"
b11011 1
b11011 y
b11011 /"
b11100 @
b11100 M
b11100 -"
bx ,
bx |
bx ""
bx )"
bx $
bx &
bx '
bx *"
b0 r
b11100 j
b11100 q
b11011 l
b11101 m
b110011 n
b1000 7
b1000 X
b1000 ]
b1000 t
b1110011011000111010110011 6
b1110011011000111010110011 V
b1110011011000111010110011 Z
b1110011011000111010110011 u
b10110 A
b110110 J
b11100 D
b110110 ?
b110110 N
b110110 ."
b1100 -
b1100 ~
b1100 %"
b1100 ("
b1100 #
b1100 %
b1100 +
b1100 '"
b1100 *
b1100 +"
b1100 ,"
b1110011011000111010110011 .
b1110011011000111010110011 o
b1110011011000111010110011 {
b1110011011000111010110011 #"
b1000 /
b1000 p
b1000 }
b1000 &"
b11011000000000111000010011 <
b11011000000000111000010011 H
b11011000000000111000010011 U
b11011000000000111000010011 [
b100 =
b100 I
b100 W
b100 ^
b110110 :
b110110 F
b110110 Q
b110110 d
b11100 9
b11100 C
b11100 O
b11100 h
1!
#90000
0!
#100000
b0 (
b0 i
b0 2"
b0 )
b0 k
b0 1"
b0 3
b0 P
b0 g
b0 x
02
b0 4
b0 R
b0 c
b0 w
b0 5
b0 T
b0 `
b0 v
b0 0
b0 z
b0 0"
b0 1
b0 y
b0 /"
b11101 @
b11101 M
b11101 -"
b1011100 ?
b1011100 N
b1011100 ."
b0 K
b11100 A
b11100 J
b11011 B
b11101 D
b110011 E
bx r
bx j
bx q
bx l
bx s
bx m
bx n
b1100 7
b1100 X
b1100 ]
b1100 t
bx 6
bx V
bx Z
bx u
b11101 9
b11101 C
b11101 O
b11101 h
b100110 ;
b100110 G
b100110 S
b100110 a
b1000 =
b1000 I
b1000 W
b1000 ^
b1110011011000111010110011 <
b1110011011000111010110011 H
b1110011011000111010110011 U
b1110011011000111010110011 [
b1100 /
b1100 p
b1100 }
b1100 &"
bx .
bx o
bx {
bx #"
b10000 -
b10000 ~
b10000 %"
b10000 ("
b10000 #
b10000 %
b10000 +
b10000 '"
b10000 *
b10000 +"
b10000 ,"
1!
#110000
0!
#120000
b0 @
b0 M
b0 -"
b10000 7
b10000 X
b10000 ]
b10000 t
bx K
bx A
bx J
bx B
bx L
bx D
bx E
0>
b0 ?
b0 N
b0 ."
b10100 -
b10100 ~
b10100 %"
b10100 ("
b10100 #
b10100 %
b10100 +
b10100 '"
b10100 *
b10100 +"
b10100 ,"
b10000 /
b10000 p
b10000 }
b10000 &"
bx <
bx H
bx U
bx [
b1100 =
b1100 I
b1100 W
b1100 ^
b0 ;
b0 G
b0 S
b0 a
b0 :
b0 F
b0 Q
b0 d
08
b0 9
b0 C
b0 O
b0 h
1!
#130000
0!
#140000
b10100 7
b10100 X
b10100 ]
b10100 t
b10000 =
b10000 I
b10000 W
b10000 ^
b10100 /
b10100 p
b10100 }
b10100 &"
b11000 -
b11000 ~
b11000 %"
b11000 ("
b11000 #
b11000 %
b11000 +
b11000 '"
b11000 *
b11000 +"
b11000 ,"
1!
#150000
0!
#160000
b11000 7
b11000 X
b11000 ]
b11000 t
b11100 -
b11100 ~
b11100 %"
b11100 ("
b11100 #
b11100 %
b11100 +
b11100 '"
b11100 *
b11100 +"
b11100 ,"
b11000 /
b11000 p
b11000 }
b11000 &"
b10100 =
b10100 I
b10100 W
b10100 ^
1!
#170000
0!
#180000
b11100 7
b11100 X
b11100 ]
b11100 t
b11000 =
b11000 I
b11000 W
b11000 ^
b11100 /
b11100 p
b11100 }
b11100 &"
b100000 -
b100000 ~
b100000 %"
b100000 ("
b100000 #
b100000 %
b100000 +
b100000 '"
b100000 *
b100000 +"
b100000 ,"
1!
#190000
0!
#200000
b100000 7
b100000 X
b100000 ]
b100000 t
b100100 -
b100100 ~
b100100 %"
b100100 ("
b100100 #
b100100 %
b100100 +
b100100 '"
b100100 *
b100100 +"
b100100 ,"
b100000 /
b100000 p
b100000 }
b100000 &"
b11100 =
b11100 I
b11100 W
b11100 ^
1!
#210000
0!
#220000
b100100 7
b100100 X
b100100 ]
b100100 t
b100000 =
b100000 I
b100000 W
b100000 ^
b100100 /
b100100 p
b100100 }
b100100 &"
b101000 -
b101000 ~
b101000 %"
b101000 ("
b101000 #
b101000 %
b101000 +
b101000 '"
b101000 *
b101000 +"
b101000 ,"
1!
#230000
0!
#240000
b101000 7
b101000 X
b101000 ]
b101000 t
b101100 -
b101100 ~
b101100 %"
b101100 ("
b101100 #
b101100 %
b101100 +
b101100 '"
b101100 *
b101100 +"
b101100 ,"
b101000 /
b101000 p
b101000 }
b101000 &"
b100100 =
b100100 I
b100100 W
b100100 ^
1!
#250000
0!
#260000
b101100 7
b101100 X
b101100 ]
b101100 t
b101000 =
b101000 I
b101000 W
b101000 ^
b101100 /
b101100 p
b101100 }
b101100 &"
b110000 -
b110000 ~
b110000 %"
b110000 ("
b110000 #
b110000 %
b110000 +
b110000 '"
b110000 *
b110000 +"
b110000 ,"
1!
#270000
0!
#280000
b110000 7
b110000 X
b110000 ]
b110000 t
b110100 -
b110100 ~
b110100 %"
b110100 ("
b110100 #
b110100 %
b110100 +
b110100 '"
b110100 *
b110100 +"
b110100 ,"
b110000 /
b110000 p
b110000 }
b110000 &"
b101100 =
b101100 I
b101100 W
b101100 ^
1!
#290000
0!
#300000
b110100 7
b110100 X
b110100 ]
b110100 t
b110000 =
b110000 I
b110000 W
b110000 ^
b110100 /
b110100 p
b110100 }
b110100 &"
b111000 -
b111000 ~
b111000 %"
b111000 ("
b111000 #
b111000 %
b111000 +
b111000 '"
b111000 *
b111000 +"
b111000 ,"
1!
#310000
0!
#320000
b111000 7
b111000 X
b111000 ]
b111000 t
b111100 -
b111100 ~
b111100 %"
b111100 ("
b111100 #
b111100 %
b111100 +
b111100 '"
b111100 *
b111100 +"
b111100 ,"
b111000 /
b111000 p
b111000 }
b111000 &"
b110100 =
b110100 I
b110100 W
b110100 ^
1!
#330000
0!
#340000
b111100 7
b111100 X
b111100 ]
b111100 t
b111000 =
b111000 I
b111000 W
b111000 ^
b111100 /
b111100 p
b111100 }
b111100 &"
b1000000 -
b1000000 ~
b1000000 %"
b1000000 ("
b1000000 #
b1000000 %
b1000000 +
b1000000 '"
b1000000 *
b1000000 +"
b1000000 ,"
1!
#350000
0!
#360000
b1000000 7
b1000000 X
b1000000 ]
b1000000 t
b1000100 -
b1000100 ~
b1000100 %"
b1000100 ("
b1000100 #
b1000100 %
b1000100 +
b1000100 '"
b1000100 *
b1000100 +"
b1000100 ,"
b1000000 /
b1000000 p
b1000000 }
b1000000 &"
b111100 =
b111100 I
b111100 W
b111100 ^
1!
#370000
0!
#380000
b1000100 7
b1000100 X
b1000100 ]
b1000100 t
b1000000 =
b1000000 I
b1000000 W
b1000000 ^
b1000100 /
b1000100 p
b1000100 }
b1000100 &"
b1001000 -
b1001000 ~
b1001000 %"
b1001000 ("
b1001000 #
b1001000 %
b1001000 +
b1001000 '"
b1001000 *
b1001000 +"
b1001000 ,"
1!
#390000
0!
#400000
b1001000 7
b1001000 X
b1001000 ]
b1001000 t
b1001100 -
b1001100 ~
b1001100 %"
b1001100 ("
b1001100 #
b1001100 %
b1001100 +
b1001100 '"
b1001100 *
b1001100 +"
b1001100 ,"
b1001000 /
b1001000 p
b1001000 }
b1001000 &"
b1000100 =
b1000100 I
b1000100 W
b1000100 ^
1!
#410000
0!
#420000
b1001100 7
b1001100 X
b1001100 ]
b1001100 t
b1001000 =
b1001000 I
b1001000 W
b1001000 ^
b1001100 /
b1001100 p
b1001100 }
b1001100 &"
b1010000 -
b1010000 ~
b1010000 %"
b1010000 ("
b1010000 #
b1010000 %
b1010000 +
b1010000 '"
b1010000 *
b1010000 +"
b1010000 ,"
1!
#430000
0!
#440000
b1010000 7
b1010000 X
b1010000 ]
b1010000 t
b1010100 -
b1010100 ~
b1010100 %"
b1010100 ("
b1010100 #
b1010100 %
b1010100 +
b1010100 '"
b1010100 *
b1010100 +"
b1010100 ,"
b1010000 /
b1010000 p
b1010000 }
b1010000 &"
b1001100 =
b1001100 I
b1001100 W
b1001100 ^
1!
#450000
0!
#460000
b1010100 7
b1010100 X
b1010100 ]
b1010100 t
b1010000 =
b1010000 I
b1010000 W
b1010000 ^
b1010100 /
b1010100 p
b1010100 }
b1010100 &"
b1011000 -
b1011000 ~
b1011000 %"
b1011000 ("
b1011000 #
b1011000 %
b1011000 +
b1011000 '"
b1011000 *
b1011000 +"
b1011000 ,"
1!
#470000
0!
#480000
b1011000 7
b1011000 X
b1011000 ]
b1011000 t
b1011100 -
b1011100 ~
b1011100 %"
b1011100 ("
b1011100 #
b1011100 %
b1011100 +
b1011100 '"
b1011100 *
b1011100 +"
b1011100 ,"
b1011000 /
b1011000 p
b1011000 }
b1011000 &"
b1010100 =
b1010100 I
b1010100 W
b1010100 ^
1!
#490000
0!
#500000
b1011100 7
b1011100 X
b1011100 ]
b1011100 t
b1011000 =
b1011000 I
b1011000 W
b1011000 ^
b1011100 /
b1011100 p
b1011100 }
b1011100 &"
b1100000 -
b1100000 ~
b1100000 %"
b1100000 ("
b1100000 #
b1100000 %
b1100000 +
b1100000 '"
b1100000 *
b1100000 +"
b1100000 ,"
1!
#510000
0!
#520000
b1100000 7
b1100000 X
b1100000 ]
b1100000 t
b1100100 -
b1100100 ~
b1100100 %"
b1100100 ("
b1100100 #
b1100100 %
b1100100 +
b1100100 '"
b1100100 *
b1100100 +"
b1100100 ,"
b1100000 /
b1100000 p
b1100000 }
b1100000 &"
b1011100 =
b1011100 I
b1011100 W
b1011100 ^
1!
#530000
0!
#540000
b1100100 7
b1100100 X
b1100100 ]
b1100100 t
b1100000 =
b1100000 I
b1100000 W
b1100000 ^
b1100100 /
b1100100 p
b1100100 }
b1100100 &"
b1101000 -
b1101000 ~
b1101000 %"
b1101000 ("
b1101000 #
b1101000 %
b1101000 +
b1101000 '"
b1101000 *
b1101000 +"
b1101000 ,"
1!
#550000
0!
#560000
b1101000 7
b1101000 X
b1101000 ]
b1101000 t
b1101100 -
b1101100 ~
b1101100 %"
b1101100 ("
b1101100 #
b1101100 %
b1101100 +
b1101100 '"
b1101100 *
b1101100 +"
b1101100 ,"
b1101000 /
b1101000 p
b1101000 }
b1101000 &"
b1100100 =
b1100100 I
b1100100 W
b1100100 ^
1!
#570000
0!
#580000
b1101100 7
b1101100 X
b1101100 ]
b1101100 t
b1101000 =
b1101000 I
b1101000 W
b1101000 ^
b1101100 /
b1101100 p
b1101100 }
b1101100 &"
b1110000 -
b1110000 ~
b1110000 %"
b1110000 ("
b1110000 #
b1110000 %
b1110000 +
b1110000 '"
b1110000 *
b1110000 +"
b1110000 ,"
1!
#590000
0!
#600000
b1110000 7
b1110000 X
b1110000 ]
b1110000 t
b1110100 -
b1110100 ~
b1110100 %"
b1110100 ("
b1110100 #
b1110100 %
b1110100 +
b1110100 '"
b1110100 *
b1110100 +"
b1110100 ,"
b1110000 /
b1110000 p
b1110000 }
b1110000 &"
b1101100 =
b1101100 I
b1101100 W
b1101100 ^
1!
#610000
0!
#620000
b1110100 7
b1110100 X
b1110100 ]
b1110100 t
b1110000 =
b1110000 I
b1110000 W
b1110000 ^
b1110100 /
b1110100 p
b1110100 }
b1110100 &"
b1111000 -
b1111000 ~
b1111000 %"
b1111000 ("
b1111000 #
b1111000 %
b1111000 +
b1111000 '"
b1111000 *
b1111000 +"
b1111000 ,"
1!
#630000
0!
#640000
b1111000 7
b1111000 X
b1111000 ]
b1111000 t
b1111100 -
b1111100 ~
b1111100 %"
b1111100 ("
b1111100 #
b1111100 %
b1111100 +
b1111100 '"
b1111100 *
b1111100 +"
b1111100 ,"
b1111000 /
b1111000 p
b1111000 }
b1111000 &"
b1110100 =
b1110100 I
b1110100 W
b1110100 ^
1!
#650000
0!
#660000
b1111100 7
b1111100 X
b1111100 ]
b1111100 t
b1111000 =
b1111000 I
b1111000 W
b1111000 ^
b1111100 /
b1111100 p
b1111100 }
b1111100 &"
b10000000 -
b10000000 ~
b10000000 %"
b10000000 ("
b10000000 #
b10000000 %
b10000000 +
b10000000 '"
b10000000 *
b10000000 +"
b10000000 ,"
1!
#670000
0!
#680000
b10000000 7
b10000000 X
b10000000 ]
b10000000 t
b10000100 -
b10000100 ~
b10000100 %"
b10000100 ("
b10000100 #
b10000100 %
b10000100 +
b10000100 '"
b10000100 *
b10000100 +"
b10000100 ,"
b10000000 /
b10000000 p
b10000000 }
b10000000 &"
b1111100 =
b1111100 I
b1111100 W
b1111100 ^
1!
#690000
0!
#700000
b10000100 7
b10000100 X
b10000100 ]
b10000100 t
b10000000 =
b10000000 I
b10000000 W
b10000000 ^
b10000100 /
b10000100 p
b10000100 }
b10000100 &"
b10001000 -
b10001000 ~
b10001000 %"
b10001000 ("
b10001000 #
b10001000 %
b10001000 +
b10001000 '"
b10001000 *
b10001000 +"
b10001000 ,"
1!
#710000
0!
#720000
b10001000 7
b10001000 X
b10001000 ]
b10001000 t
b10001100 -
b10001100 ~
b10001100 %"
b10001100 ("
b10001100 #
b10001100 %
b10001100 +
b10001100 '"
b10001100 *
b10001100 +"
b10001100 ,"
b10001000 /
b10001000 p
b10001000 }
b10001000 &"
b10000100 =
b10000100 I
b10000100 W
b10000100 ^
1!
#730000
0!
#740000
b10001100 7
b10001100 X
b10001100 ]
b10001100 t
b10001000 =
b10001000 I
b10001000 W
b10001000 ^
b10001100 /
b10001100 p
b10001100 }
b10001100 &"
b10010000 -
b10010000 ~
b10010000 %"
b10010000 ("
b10010000 #
b10010000 %
b10010000 +
b10010000 '"
b10010000 *
b10010000 +"
b10010000 ,"
1!
#750000
0!
#760000
b10010000 7
b10010000 X
b10010000 ]
b10010000 t
b10010100 -
b10010100 ~
b10010100 %"
b10010100 ("
b10010100 #
b10010100 %
b10010100 +
b10010100 '"
b10010100 *
b10010100 +"
b10010100 ,"
b10010000 /
b10010000 p
b10010000 }
b10010000 &"
b10001100 =
b10001100 I
b10001100 W
b10001100 ^
1!
#770000
0!
#780000
b10010100 7
b10010100 X
b10010100 ]
b10010100 t
b10010000 =
b10010000 I
b10010000 W
b10010000 ^
b10010100 /
b10010100 p
b10010100 }
b10010100 &"
b10011000 -
b10011000 ~
b10011000 %"
b10011000 ("
b10011000 #
b10011000 %
b10011000 +
b10011000 '"
b10011000 *
b10011000 +"
b10011000 ,"
1!
#790000
0!
#800000
b10011000 7
b10011000 X
b10011000 ]
b10011000 t
b10011100 -
b10011100 ~
b10011100 %"
b10011100 ("
b10011100 #
b10011100 %
b10011100 +
b10011100 '"
b10011100 *
b10011100 +"
b10011100 ,"
b10011000 /
b10011000 p
b10011000 }
b10011000 &"
b10010100 =
b10010100 I
b10010100 W
b10010100 ^
1!
#810000
0!
#820000
b10011100 7
b10011100 X
b10011100 ]
b10011100 t
b10011000 =
b10011000 I
b10011000 W
b10011000 ^
b10011100 /
b10011100 p
b10011100 }
b10011100 &"
b10100000 -
b10100000 ~
b10100000 %"
b10100000 ("
b10100000 #
b10100000 %
b10100000 +
b10100000 '"
b10100000 *
b10100000 +"
b10100000 ,"
1!
#830000
0!
#840000
b10100000 7
b10100000 X
b10100000 ]
b10100000 t
b10100100 -
b10100100 ~
b10100100 %"
b10100100 ("
b10100100 #
b10100100 %
b10100100 +
b10100100 '"
b10100100 *
b10100100 +"
b10100100 ,"
b10100000 /
b10100000 p
b10100000 }
b10100000 &"
b10011100 =
b10011100 I
b10011100 W
b10011100 ^
1!
#850000
0!
#860000
b10100100 7
b10100100 X
b10100100 ]
b10100100 t
b10100000 =
b10100000 I
b10100000 W
b10100000 ^
b10100100 /
b10100100 p
b10100100 }
b10100100 &"
b10101000 -
b10101000 ~
b10101000 %"
b10101000 ("
b10101000 #
b10101000 %
b10101000 +
b10101000 '"
b10101000 *
b10101000 +"
b10101000 ,"
1!
#870000
0!
#880000
b10101000 7
b10101000 X
b10101000 ]
b10101000 t
b10101100 -
b10101100 ~
b10101100 %"
b10101100 ("
b10101100 #
b10101100 %
b10101100 +
b10101100 '"
b10101100 *
b10101100 +"
b10101100 ,"
b10101000 /
b10101000 p
b10101000 }
b10101000 &"
b10100100 =
b10100100 I
b10100100 W
b10100100 ^
1!
#890000
0!
#900000
b10101100 7
b10101100 X
b10101100 ]
b10101100 t
b10101000 =
b10101000 I
b10101000 W
b10101000 ^
b10101100 /
b10101100 p
b10101100 }
b10101100 &"
b10110000 -
b10110000 ~
b10110000 %"
b10110000 ("
b10110000 #
b10110000 %
b10110000 +
b10110000 '"
b10110000 *
b10110000 +"
b10110000 ,"
1!
#910000
0!
#920000
b10110000 7
b10110000 X
b10110000 ]
b10110000 t
b10110100 -
b10110100 ~
b10110100 %"
b10110100 ("
b10110100 #
b10110100 %
b10110100 +
b10110100 '"
b10110100 *
b10110100 +"
b10110100 ,"
b10110000 /
b10110000 p
b10110000 }
b10110000 &"
b10101100 =
b10101100 I
b10101100 W
b10101100 ^
1!
#930000
0!
#940000
b10110100 7
b10110100 X
b10110100 ]
b10110100 t
b10110000 =
b10110000 I
b10110000 W
b10110000 ^
b10110100 /
b10110100 p
b10110100 }
b10110100 &"
b10111000 -
b10111000 ~
b10111000 %"
b10111000 ("
b10111000 #
b10111000 %
b10111000 +
b10111000 '"
b10111000 *
b10111000 +"
b10111000 ,"
1!
#950000
0!
#960000
b10111000 7
b10111000 X
b10111000 ]
b10111000 t
b10111100 -
b10111100 ~
b10111100 %"
b10111100 ("
b10111100 #
b10111100 %
b10111100 +
b10111100 '"
b10111100 *
b10111100 +"
b10111100 ,"
b10111000 /
b10111000 p
b10111000 }
b10111000 &"
b10110100 =
b10110100 I
b10110100 W
b10110100 ^
1!
#970000
0!
#980000
b10111100 7
b10111100 X
b10111100 ]
b10111100 t
b10111000 =
b10111000 I
b10111000 W
b10111000 ^
b10111100 /
b10111100 p
b10111100 }
b10111100 &"
b11000000 -
b11000000 ~
b11000000 %"
b11000000 ("
b11000000 #
b11000000 %
b11000000 +
b11000000 '"
b11000000 *
b11000000 +"
b11000000 ,"
1!
#990000
0!
#1000000
b11000000 7
b11000000 X
b11000000 ]
b11000000 t
b11000100 -
b11000100 ~
b11000100 %"
b11000100 ("
b11000100 #
b11000100 %
b11000100 +
b11000100 '"
b11000100 *
b11000100 +"
b11000100 ,"
b11000000 /
b11000000 p
b11000000 }
b11000000 &"
b10111100 =
b10111100 I
b10111100 W
b10111100 ^
1!
#1010000
0!
#1020000
b11000100 7
b11000100 X
b11000100 ]
b11000100 t
b11000000 =
b11000000 I
b11000000 W
b11000000 ^
b11000100 /
b11000100 p
b11000100 }
b11000100 &"
b11001000 -
b11001000 ~
b11001000 %"
b11001000 ("
b11001000 #
b11001000 %
b11001000 +
b11001000 '"
b11001000 *
b11001000 +"
b11001000 ,"
1!
#1030000
0!
#1040000
b11001000 7
b11001000 X
b11001000 ]
b11001000 t
b11001100 -
b11001100 ~
b11001100 %"
b11001100 ("
b11001100 #
b11001100 %
b11001100 +
b11001100 '"
b11001100 *
b11001100 +"
b11001100 ,"
b11001000 /
b11001000 p
b11001000 }
b11001000 &"
b11000100 =
b11000100 I
b11000100 W
b11000100 ^
1!
#1050000
0!
#1060000
b11001100 7
b11001100 X
b11001100 ]
b11001100 t
b11001000 =
b11001000 I
b11001000 W
b11001000 ^
b11001100 /
b11001100 p
b11001100 }
b11001100 &"
b11010000 -
b11010000 ~
b11010000 %"
b11010000 ("
b11010000 #
b11010000 %
b11010000 +
b11010000 '"
b11010000 *
b11010000 +"
b11010000 ,"
1!
